%!PS-Adobe-2.0 EPSF-2.0
%%BoundingBox: 10 150 471 681
%%Title: /tmpdir/jbehrens/JB-Local/Flash/doc/Dataflow-new.eps
%%CreationDate: 1:09 PM January 21, 1998
%%Pages: 1
%%EndComments
%%BeginProlog
%%BeginResource ShowcaseResource
1 setlinejoin
/M  { moveto } bind def /S { show  } bind def
/R { rmoveto } bind def /L { lineto } bind def
/B { newpath 0 0 M 0 1 L 1 1 L 1 0 L closepath } bind def
/CS { closepath stroke } bind def
/S {
    /fixwidth exch def
    dup length /nchars exch def
    dup stringwidth pop
    fixwidth exch sub nchars div
    exch 0 exch ashow
} def
/bwproc {
	rgbproc
	dup length 3 idiv string 0 3 0
	5 -1 roll {
	add 2 1 roll 1 sub dup 0 eq
	{ pop 3 idiv 3 -1 roll dup 4 -1 roll dup
	  3 1 roll 5 -1 roll put 1 add 3 0 }
	{ 2 1 roll } ifelse
	} forall
	pop pop pop
} def
systemdict /colorimage known not {
	/colorimage {
		pop
		pop
		/rgbproc exch def
		{ bwproc } image
	} def
} if
1 1 scale
0 setlinewidth
/drawtri {
/y3 exch def
/x3 exch def
/y2 exch def
/x2 exch def
/y1 exch def
/x1 exch def
0 setgray
newpath
x1 y1 moveto
x2 y2 lineto
x3 y3 lineto
closepath
stroke
} bind def
/filltri {
/y3 exch def
/x3 exch def
/y2 exch def
/x2 exch def
/y1 exch def
/x1 exch def
newpath
x1 y1 moveto
x2 y2 lineto
x3 y3 lineto
closepath
fill
} bind def
/cliptri {
/y3 exch def
/x3 exch def
/y2 exch def
/x2 exch def
/y1 exch def
/x1 exch def
0 setgray
newpath
x1 y1 moveto
x2 y2 lineto
x3 y3 lineto
closepath
clip
} bind def
/imgscanrgb {
gsave
translate
/scandy exch def
/scandx exch def
/istr scandx 3 mul string def
scandx scandy scale
scandx scandy 8
[scandx 0 0 scandy neg 0 scandy]
{currentfile istr readhexstring pop}
false 3
colorimage
grestore
} bind def
/imgscanbw {
gsave
translate
/scandy exch def
/scandx exch def
/istr scandx string def
scandx scandy scale
scandx scandy 8
[scandx 0 0 scandy neg 0 scandy]
{currentfile istr readhexstring pop}
image
grestore
} bind def
/showcaseisoencoding [
/.notdef /.notdef /.notdef /.notdef
/.notdef /.notdef /.notdef /.notdef
/.notdef /.notdef /.notdef /.notdef
/.notdef /.notdef /.notdef /.notdef
/.notdef /.notdef /.notdef /.notdef
/.notdef /.notdef /.notdef /.notdef
/.notdef /.notdef /.notdef /.notdef
/.notdef /.notdef /.notdef /.notdef
/space /exclam /quotedbl /numbersign
/dollar /percent /ampersand /quoteright
/parenleft /parenright /asterisk /plus
/comma /minus /period /slash
/zero /one /two /three /four /five /six /seven
/eight /nine /colon /semicolon
/less /equal /greater /question
/at /A /B /C /D /E /F /G
/H /I /J /K /L /M /N /O
/P /Q /R /S /T /U /V /W
/X /Y /Z /bracketleft
/backslash /bracketright /asciicircum /underscore
/quoteleft /a /b /c /d /e /f /g
/h /i /j /k /l /m /n /o
/p /q /r /s /t /u /v /w
/x /y /z /braceleft
/bar /braceright /asciitilde /guilsinglright
/fraction /florin /quotesingle /quotedblleft
/guilsinglleft /fi /fl /endash
/dagger /daggerdbl /bullet /quotesinglbase
/quotedblbase /quotedblright /ellipsis /trademark
/dotlessi /grave /acute /circumflex
/tilde /macron /breve /dotaccent
/dieresis /perthousand /ring /cedilla
/Ydieresis /hungarumlaut /ogonek /caron
/emdash /exclamdown /cent /sterling
/currency /yen /brokenbar /section
/dieresis /copyright /ordfeminine /guillemotleft
/logicalnot /hyphen /registered /macron
/degree /plusminus /twosuperior /threesuperior
/acute /mu /paragraph /periodcentered
/cedilla /onesuperior /ordmasculine /guillemotright
/onequarter /onehalf /threequarters /questiondown
/Agrave /Aacute /Acircumflex /Atilde
/Adieresis /Aring /AE /Ccedilla
/Egrave /Eacute /Ecircumflex /Edieresis
/Igrave /Iacute /Icircumflex /Idieresis
/Eth /Ntilde /Ograve /Oacute
/Ocircumflex /Otilde /Odieresis /multiply
/Oslash /Ugrave /Uacute /Ucircumflex
/Udieresis /Yacute /Thorn /germandbls
/agrave /aacute /acircumflex /atilde
/adieresis /aring /ae /ccedilla
/egrave /eacute /ecircumflex /edieresis
/igrave /iacute /icircumflex /idieresis
/eth /ntilde /ograve /oacute
/ocircumflex /otilde /odieresis /divide
/oslash /ugrave /uacute /ucircumflex
/udieresis /yacute /thorn /ydieresis ] def
/showcasedingbatencoding [
/.notdef /.notdef /.notdef /.notdef
/.notdef /.notdef /.notdef /.notdef
/.notdef /.notdef /.notdef /.notdef
/.notdef /.notdef /.notdef /.notdef
/.notdef /.notdef /.notdef /.notdef
/.notdef /.notdef /.notdef /.notdef
/.notdef /.notdef /.notdef /.notdef
/.notdef /.notdef /.notdef /.notdef
/.notdef /a1 /a2 /a202 /a3 /a4 /a5 /a119 /a118 /a117
/a11 /a12 /a13 /a14 /a15 /a16 /a105 /a17 /a18 /a19
/a20 /a21 /a22 /a23 /a24 /a25 /a26 /a27 /a28 /a6 /a7
/a8 /a9 /a10 /a29
/a30 /a31 /a32 /a33 /a34 /a35 /a36 /a37 /a38 /a39
/a40 /a41 /a42 /a43 /a44 /a45 /a46 /a47 /a48 /a49
/a50 /a51 /a52 /a53 /a54 /a55 /a56 /a57 /a58 /a59
/a60 /a61 /a62 /a63 /a64 /a65 /a66 /a67 /a68 /a69
/a70 /a71 /a72 /a73 /a74 /a203 /a75 /a204 /a76 /a77 /a78
/a79 /a81 /a82 /a83 /a84 /a97 /a98 /a99 /a100 /.notdef
/a205 /a85 /a206 /a86 /a87 /a88 /a89 /a90 /a91 /a92 /a93
/a94 /a95 /a96
/.notdef /.notdef /.notdef /.notdef /.notdef /.notdef
/.notdef /.notdef /.notdef /.notdef /.notdef /.notdef
/.notdef /.notdef /.notdef /.notdef /.notdef /.notdef
/.notdef /a101 /a102 /a103 /a104 /a106 /a107 /a108
/a112 /a111 /a110 /a109
/a120 /a121 /a122 /a123 /a124 /a125 /a126 /a127 /a128 /a129
/a130 /a131 /a132 /a133 /a134 /a135 /a136 /a137 /a138 /a139
/a140 /a141 /a142 /a143 /a144 /a145 /a146 /a147 /a148 /a149
/a150 /a151 /a152 /a153 /a154 /a155 /a156 /a157 /a158 /a159
/a160 /a161 /a163 /a164 /a196 /a165 /a192 /a166 /a167 /a168
/a169 /a170 /a171 /a172 /a173 /a162 /a174 /a175 /a176 /a177
/a178 /a179 /a193 /a180 /a199 /a181 /a200 /a182 /.notdef
/a201 /a183 /a184 /a197 /a185 /a194 /a198 /a186 /a195 /a187
/a188 /a189 /a190 /a191 /.notdef
] def
/Courier-Bold findfont
dup length dict begin
  {1 index /FID ne {def} {pop pop} ifelse} forall
  /Encoding showcaseisoencoding def
  currentdict
end
/Courier-Bold-SHOWISO exch definefont pop
/newfont 10 dict def
newfont begin

 /FontType 3 def
 /FontMatrix [1 0 0 1 0 0] def
 /FontBBox [0 0 1 1] def
 /Encoding 256 array def
 0 1 255 {Encoding exch /.notdef put} for

 /CharProcs 1 dict def
 CharProcs begin
 /.notdef {} def

end

 /BuildChar {
  1 0
  0 0 1 1
  setcachedevice
  exch begin
  Encoding exch get
  CharProcs exch get
  end
  exec
 } def
end
/PatternFont newfont definefont pop

%%EndResource
%%EndProlog
%%BeginSetup
%%EndSetup
%%Page: label 1
gsave
/saveit save def
gsave
gsave
1 0 1 setrgbcolor
7.000000 setlinewidth
newpath
189.5 459 M
229.5 459 L
stroke
grestore
gsave
0 0 0 setrgbcolor
1.000000 setlinewidth
newpath
283.125 422.5 M
283.125 396.25 L
stroke
grestore
gsave
0 0 0 setrgbcolor
1.000000 setlinewidth
newpath
283.125 480.625 M
283.125 451.875 L
stroke
grestore
gsave
matrix currentmatrix
[170 0 0 -28 198.431 693.556] concat
B
setmatrix
0 0 0 setrgbcolor
1.000000 setlinewidth
gsave stroke grestore
grestore
gsave
1 0 1 setrgbcolor
4.000000 setlinewidth
newpath
215.394 665.926 M
244.394 665.926 L
stroke
grestore
gsave
gsave
matrix currentmatrix
[1 0 0 1 216.131 671.057] concat
newpath
0 0 M 0 17 L 134.6 17 L 134.6 0 L
closepath setmatrix
0 1 1 setrgbcolor
grestore
newpath
212.631 667.557 M 212.631 691.557 L 354.231 691.557 L 354.231 667.557 L
closepath clip newpath
0 0 0 setrgbcolor
matrix currentmatrix
[1 0 0 1 216.131 671.057] concat
/Courier-Bold-SHOWISO findfont 17 scalefont setfont
0 0 0 setrgbcolor
0 3 M (io_getcmdline) 132.6 S
setmatrix
grestore
gsave
matrix currentmatrix
[170 0 0 -28 87.0139 635.778] concat
B
setmatrix
0 0 0 setrgbcolor
1.000000 setlinewidth
gsave stroke grestore
grestore
gsave
1 0 1 setrgbcolor
4.000000 setlinewidth
newpath
103.977 635.889 M
132.977 635.889 L
stroke
grestore
gsave
gsave
matrix currentmatrix
[1 0 0 1 89.4139 613.278] concat
newpath
0 0 M 0 17 L 165.2 17 L 165.2 0 L
closepath setmatrix
0 1 1 setrgbcolor
grestore
newpath
85.9139 609.778 M 85.9139 633.778 L 258.114 633.778 L 258.114 609.778 L
closepath clip newpath
0 0 0 setrgbcolor
matrix currentmatrix
[1 0 0 1 89.4139 613.278] concat
/Courier-Bold-SHOWISO findfont 17 scalefont setfont
0 0 0 setrgbcolor
0 3 M (io_getbatchinput) 163.2 S
setmatrix
grestore
gsave
matrix currentmatrix
[170 0 0 -28 308.058 635.778] concat
B
setmatrix
0 0 0 setrgbcolor
1.000000 setlinewidth
gsave stroke grestore
grestore
gsave
1 0 1 setrgbcolor
4.000000 setlinewidth
newpath
325.021 635.889 M
354.021 635.889 L
stroke
grestore
gsave
gsave
matrix currentmatrix
[1 0 0 1 310.458 613.278] concat
newpath
0 0 M 0 17 L 165.2 17 L 165.2 0 L
closepath setmatrix
0 1 1 setrgbcolor
grestore
newpath
306.958 609.778 M 306.958 633.778 L 479.158 633.778 L 479.158 609.778 L
closepath clip newpath
0 0 0 setrgbcolor
matrix currentmatrix
[1 0 0 1 310.458 613.278] concat
/Courier-Bold-SHOWISO findfont 17 scalefont setfont
0 0 0 setrgbcolor
0 3 M (io_getinterinput) 163.2 S
setmatrix
grestore
gsave
gsave
matrix currentmatrix
[1 0 0 1 211.6 487.129] concat
newpath
0 0 M 0 17 L 144.8 17 L 144.8 0 L
closepath setmatrix
0 1 1 setrgbcolor
grestore
newpath
208.1 483.629 M 208.1 507.629 L 359.9 507.629 L 359.9 483.629 L
closepath clip newpath
0 0 0 setrgbcolor
matrix currentmatrix
[1 0 0 1 211.6 487.129] concat
/Courier-Bold-SHOWISO findfont 17 scalefont setfont
0 0 0 setrgbcolor
0 3 M (slm_initialize) 142.8 S
setmatrix
grestore
gsave
gsave
matrix currentmatrix
[1 0 0 1 82.1694 439.353] concat
newpath
0 0 M 0 17 L 42.8 17 L 42.8 0 L
closepath setmatrix
0 1 1 setrgbcolor
grestore
newpath
78.6694 435.853 M 78.6694 459.853 L 128.469 459.853 L 128.469 435.853 L
closepath clip newpath
0 0 0 setrgbcolor
matrix currentmatrix
[1 0 0 1 82.1694 439.353] concat
/Courier-Bold-SHOWISO findfont 17 scalefont setfont
0 0 0 setrgbcolor
0 3 M (plot) 40.8 S
setmatrix
grestore
gsave
gsave
matrix currentmatrix
[1 0 0 1 201.4 428.121] concat
newpath
0 0 M 0 17 L 165.2 17 L 165.2 0 L
closepath setmatrix
0 1 1 setrgbcolor
grestore
newpath
197.9 424.621 M 197.9 448.621 L 370.1 448.621 L 370.1 424.621 L
closepath clip newpath
0 0 0 setrgbcolor
matrix currentmatrix
[1 0 0 1 201.4 428.121] concat
/Courier-Bold-SHOWISO findfont 17 scalefont setfont
0 0 0 setrgbcolor
0 3 M (slm_timestepping) 163.2 S
setmatrix
grestore
gsave
gsave
matrix currentmatrix
[1 0 0 1 232 374.129] concat
newpath
0 0 M 0 17 L 104 17 L 104 0 L
closepath setmatrix
0 1 1 setrgbcolor
grestore
newpath
228.5 370.629 M 228.5 394.629 L 339.5 394.629 L 339.5 370.629 L
closepath clip newpath
0 0 0 setrgbcolor
matrix currentmatrix
[1 0 0 1 232 374.129] concat
/Courier-Bold-SHOWISO findfont 17 scalefont setfont
0 0 0 setrgbcolor
0 3 M (slm_finish) 102 S
setmatrix
grestore
gsave
0 1 1 setrgbcolor
1.000000 setlinewidth
newpath
21.1111 865.556 M
34.4444 871.111 L
stroke
grestore
gsave
0 0 0 setrgbcolor
1.000000 setlinewidth
newpath
283.125 543.125 M
283.125 510 L
stroke
grestore
gsave
0 0 0 setrgbcolor
1.000000 setlinewidth
newpath
283.625 461.853 M
189.5 461.853 L
stroke
grestore
gsave
0 0 0 setrgbcolor
1.000000 setlinewidth
newpath
283 666 M
170 636 L
stroke
grestore
gsave
0 0 0 setrgbcolor
1.000000 setlinewidth
newpath
283 665 M
396 636 L
stroke
grestore
gsave
0 0 1 setrgbcolor
7.000000 setlinewidth
newpath
261.5 471.5 M
79.5 471.5 L
stroke
grestore
gsave
0 0 0 setrgbcolor
1.000000 setlinewidth
newpath
170 608 M
283 571 L
stroke
grestore
gsave
0 0 0 setrgbcolor
1.000000 setlinewidth
newpath
396 608 M
283 571 L
stroke
grestore
gsave
0 0 1 setrgbcolor
7.000000 setlinewidth
newpath
261.5 480 M
261.5 451 L
stroke
grestore
gsave
0 0 1 setrgbcolor
7.000000 setlinewidth
newpath
261.5 422 M
261.5 396 L
stroke
grestore
gsave
gsave
matrix currentmatrix
[1 0 0 1 201.4 547.999] concat
newpath
0 0 M 0 17 L 165.2 17 L 165.2 0 L
closepath setmatrix
0 1 1 setrgbcolor
grestore
newpath
197.9 544.499 M 197.9 568.499 L 370.1 568.499 L 370.1 544.499 L
closepath clip newpath
0 0 0 setrgbcolor
matrix currentmatrix
[1 0 0 1 201.4 547.999] concat
/Courier-Bold-SHOWISO findfont 17 scalefont setfont
0 0 0 setrgbcolor
0 3 M (io_putparameters) 163.2 S
setmatrix
grestore
gsave
1 0 1 setrgbcolor
7.000000 setlinewidth
newpath
230 665 M
230 648.769 L
stroke
grestore
gsave
1 0 1 setrgbcolor
7.000000 setlinewidth
newpath
47 648 M
337 648 L
stroke
grestore
gsave
1 0 1 setrgbcolor
7.000000 setlinewidth
newpath
119 648 M
119 636 L
stroke
grestore
gsave
1 0 1 setrgbcolor
7.000000 setlinewidth
newpath
339 651.231 M
339 635 L
stroke
grestore
gsave
1 0 1 setrgbcolor
7.000000 setlinewidth
newpath
50 647 M
50 462 L
stroke
grestore
gsave
1 0 1 setrgbcolor
7.000000 setlinewidth
newpath
112.111 309.556 M
135.444 309.556 L
stroke
grestore
gsave
gsave
matrix currentmatrix
[1 0 0 1 152.222 301.109] concat
newpath
0 0 M 0 17 L 180.84 17 L 180.84 0 L
closepath setmatrix
0 1 1 setrgbcolor
grestore
newpath
150.222 299.109 M 150.222 320.109 L 335.062 320.109 L 335.062 299.109 L
closepath clip newpath
0 0 0 setrgbcolor
matrix currentmatrix
[1 0 0 1 152.222 301.109] concat
/AvantGarde-Demi-SHOWISO findfont 17 scalefont setfont
0 0 0 setrgbcolor
0 4 M (C) 13.26 S
13.26 4 M (ontrol data structu) 149.26 S
162.52 4 M (re) 16.32 S
setmatrix
grestore
gsave
0 0 1 setrgbcolor
7.000000 setlinewidth
newpath
112.111 331 M
135.444 331 L
stroke
grestore
gsave
gsave
matrix currentmatrix
[1 0 0 1 152.222 322.559] concat
newpath
0 0 M 0 17 L 156.02 17 L 156.02 0 L
closepath setmatrix
0 1 1 setrgbcolor
grestore
newpath
150.222 320.559 M 150.222 341.559 L 310.242 341.559 L 310.242 320.559 L
closepath clip newpath
0 0 0 setrgbcolor
matrix currentmatrix
[1 0 0 1 152.222 322.559] concat
/AvantGarde-Demi-SHOWISO findfont 17 scalefont setfont
0 0 0 setrgbcolor
0 4 M (Grid data structure) 154.02 S
setmatrix
grestore
gsave
1 0 1 setrgbcolor
4.000000 setlinewidth
newpath
105 607.5 M
134 607.5 L
stroke
grestore
gsave
1 0 1 setrgbcolor
4.000000 setlinewidth
newpath
325 608.148 M
354 608.148 L
stroke
grestore
gsave
matrix currentmatrix
[170 0 0 -28 199 570.5] concat
B
setmatrix
0 0 0 setrgbcolor
1.000000 setlinewidth
gsave stroke grestore
grestore
gsave
1 0 1 setrgbcolor
4.000000 setlinewidth
newpath
215.963 570.611 M
244.963 570.611 L
stroke
grestore
gsave
matrix currentmatrix
[170 0 0 -28 199 509.63] concat
B
setmatrix
0 0 0 setrgbcolor
1.000000 setlinewidth
gsave stroke grestore
grestore
gsave
1 0 1 setrgbcolor
4.000000 setlinewidth
newpath
215.963 509.741 M
244.963 509.741 L
stroke
grestore
gsave
0 0 1 setrgbcolor
4.000000 setlinewidth
newpath
247.296 481.5 M
276.296 481.5 L
stroke
grestore
gsave
matrix currentmatrix
[170 0 0 -28 199 450.63] concat
B
setmatrix
0 0 0 setrgbcolor
1.000000 setlinewidth
gsave stroke grestore
grestore
gsave
0 0 1 setrgbcolor
4.000000 setlinewidth
newpath
246.796 450.741 M
275.796 450.741 L
stroke
grestore
gsave
1 0 1 setrgbcolor
4.000000 setlinewidth
newpath
215.963 450.741 M
244.963 450.741 L
stroke
grestore
gsave
0 0 1 setrgbcolor
4.000000 setlinewidth
newpath
247.296 422.5 M
276.296 422.5 L
stroke
grestore
gsave
matrix currentmatrix
[170 0 0 -28 199 396.63] concat
B
setmatrix
0 0 0 setrgbcolor
1.000000 setlinewidth
gsave stroke grestore
grestore
gsave
0 0 1 setrgbcolor
4.000000 setlinewidth
newpath
246.796 396.741 M
275.796 396.741 L
stroke
grestore
gsave
1 0 1 setrgbcolor
4.000000 setlinewidth
newpath
215.963 396.741 M
244.963 396.741 L
stroke
grestore
gsave
1 0 1 setrgbcolor
7.000000 setlinewidth
newpath
119 607 M
119 595 L
stroke
grestore
gsave
1 0 1 setrgbcolor
7.000000 setlinewidth
newpath
339 607.5 M
339 595.5 L
stroke
grestore
gsave
1 0 1 setrgbcolor
7.000000 setlinewidth
newpath
48 595 M
343 595 L
stroke
grestore
gsave
1 0 1 setrgbcolor
7.000000 setlinewidth
newpath
230 583 M
230 571 L
stroke
grestore
gsave
1 0 1 setrgbcolor
7.000000 setlinewidth
newpath
230 521.5 M
230 509.5 L
stroke
grestore
gsave
1 0 1 setrgbcolor
7.000000 setlinewidth
newpath
230 409 M
230 397 L
stroke
grestore
gsave
matrix currentmatrix
[170 0 0 -28 18.5694 461.853] concat
B
setmatrix
0 0 0 setrgbcolor
1.000000 setlinewidth
gsave stroke grestore
grestore
gsave
0 0 1 setrgbcolor
4.000000 setlinewidth
newpath
66.3657 461.964 M
95.3658 461.964 L
stroke
grestore
gsave
1 0 1 setrgbcolor
4.000000 setlinewidth
newpath
35.5324 461.964 M
64.5324 461.964 L
stroke
grestore
gsave
1 0 1 setrgbcolor
7.000000 setlinewidth
newpath
230 462 M
230 450 L
stroke
grestore
gsave
0 0 1 setrgbcolor
7.000000 setlinewidth
newpath
79.5 474 M
79.5 462 L
stroke
grestore
gsave
1 0 1 setrgbcolor
7.000000 setlinewidth
newpath
50 580.5 M
232.5 580.5 L
stroke
grestore
gsave
1 0 1 setrgbcolor
7.000000 setlinewidth
newpath
49.5 519.5 M
232 519.5 L
stroke
grestore
gsave
1 0 1 setrgbcolor
7.000000 setlinewidth
newpath
50 433.5 M
50 404 L
stroke
grestore
gsave
1 0 1 setrgbcolor
7.000000 setlinewidth
newpath
50 407 M
232.5 407 L
stroke
grestore
grestore
showpage
saveit restore
grestore
%%EOF
