%!PS-Adobe-2.0
%%Title: grids.ps
%%Creator: fig2dev Version 3.2 Patchlevel 1
%%CreationDate: Wed Aug 19 11:39:22 1998
%%For: behrens@sunbornemann3 (Joern Behrens)
%%Orientation: Portrait
%%BoundingBox: 160 136 435 706
%%Pages: 1
%%BeginSetup
%%IncludeFeature: *PageSize A4
%%EndSetup
%%Magnification: 1.0000
%%EndComments
/$F2psDict 200 dict def
$F2psDict begin
$F2psDict /mtrx matrix put
/col-1 {0 setgray} bind def
/col0 {0.000 0.000 0.000 srgb} bind def
/col1 {0.000 0.000 1.000 srgb} bind def
/col2 {0.000 1.000 0.000 srgb} bind def
/col3 {0.000 1.000 1.000 srgb} bind def
/col4 {1.000 0.000 0.000 srgb} bind def
/col5 {1.000 0.000 1.000 srgb} bind def
/col6 {1.000 1.000 0.000 srgb} bind def
/col7 {1.000 1.000 1.000 srgb} bind def
/col8 {0.000 0.000 0.560 srgb} bind def
/col9 {0.000 0.000 0.690 srgb} bind def
/col10 {0.000 0.000 0.820 srgb} bind def
/col11 {0.530 0.810 1.000 srgb} bind def
/col12 {0.000 0.560 0.000 srgb} bind def
/col13 {0.000 0.690 0.000 srgb} bind def
/col14 {0.000 0.820 0.000 srgb} bind def
/col15 {0.000 0.560 0.560 srgb} bind def
/col16 {0.000 0.690 0.690 srgb} bind def
/col17 {0.000 0.820 0.820 srgb} bind def
/col18 {0.560 0.000 0.000 srgb} bind def
/col19 {0.690 0.000 0.000 srgb} bind def
/col20 {0.820 0.000 0.000 srgb} bind def
/col21 {0.560 0.000 0.560 srgb} bind def
/col22 {0.690 0.000 0.690 srgb} bind def
/col23 {0.820 0.000 0.820 srgb} bind def
/col24 {0.500 0.190 0.000 srgb} bind def
/col25 {0.630 0.250 0.000 srgb} bind def
/col26 {0.750 0.380 0.000 srgb} bind def
/col27 {1.000 0.500 0.500 srgb} bind def
/col28 {1.000 0.630 0.630 srgb} bind def
/col29 {1.000 0.750 0.750 srgb} bind def
/col30 {1.000 0.880 0.880 srgb} bind def
/col31 {1.000 0.840 0.000 srgb} bind def

end
save
133.0 762.0 translate
1 -1 scale

/cp {closepath} bind def
/ef {eofill} bind def
/gr {grestore} bind def
/gs {gsave} bind def
/sa {save} bind def
/rs {restore} bind def
/l {lineto} bind def
/m {moveto} bind def
/rm {rmoveto} bind def
/n {newpath} bind def
/s {stroke} bind def
/sh {show} bind def
/slc {setlinecap} bind def
/slj {setlinejoin} bind def
/slw {setlinewidth} bind def
/srgb {setrgbcolor} bind def
/rot {rotate} bind def
/sc {scale} bind def
/sd {setdash} bind def
/ff {findfont} bind def
/sf {setfont} bind def
/scf {scalefont} bind def
/sw {stringwidth} bind def
/tr {translate} bind def
/tnt {dup dup currentrgbcolor
  4 -2 roll dup 1 exch sub 3 -1 roll mul add
  4 -2 roll dup 1 exch sub 3 -1 roll mul add
  4 -2 roll dup 1 exch sub 3 -1 roll mul add srgb}
  bind def
/shd {dup dup currentrgbcolor 4 -2 roll mul 4 -2 roll mul
  4 -2 roll mul srgb} bind def
/$F2psBegin {$F2psDict begin /$F2psEnteredState save def} def
/$F2psEnd {$F2psEnteredState restore end} def
%%EndProlog

$F2psBegin
10 setmiterlimit
n -1000 10928 m -1000 -1000 l 5781 -1000 l 5781 10928 l cp clip
 0.06299 0.06299 sc
%%Page: 1 1
% Polyline
7.500 slw
n 3153 1186 m 3153 1411 l 2928 1636 l 2703 1636 l gs col0 s gr 
% Polyline
n 2928 1636 m 3153 1861 l 3153 2311 l 2928 2536 l 2703 2536 l gs col0 s gr 
% Polyline
n 2928 2536 m 3153 2761 l 3153 2986 l gs col0 s gr 
% Polyline
n 3153 2761 m 3378 2536 l 3873 2716 l 4053 2986 l gs col0 s gr 
% Polyline
n 3873 2716 m 4233 2356 l 4503 2536 l gs col0 s gr 
% Polyline
n 4233 2356 m 4233 1816 l 4503 1636 l gs col0 s gr 
% Polyline
n 4233 1816 m 3873 1456 l 4053 1186 l gs col0 s gr 
% Polyline
n 3153 1411 m 3378 1636 l 3873 1456 l gs col0 s gr 
% Polyline
n 3378 1636 m 3153 1861 l gs col0 s gr 
% Polyline
n 3153 2311 m 3378 2536 l gs col0 s gr 
% Polyline
n 2703 4786 m 2928 4786 l 3153 5011 l 3153 5236 l gs col0 s gr 
% Polyline
n 3153 5011 m 3378 4786 l 3828 4786 l 4053 5011 l 4053 5236 l gs col0 s gr 
% Polyline
n 4053 5011 m 4278 4786 l 4503 4786 l gs col0 s gr 
% Polyline
n 4278 4786 m 4053 4561 l 4233 4066 l 4503 3886 l gs col0 s gr 
% Polyline
n 4233 4066 m 3873 3706 l 4053 3436 l gs col0 s gr 
% Polyline
n 3873 3706 m 3333 3706 l 3153 3436 l gs col0 s gr 
% Polyline
n 3333 3706 m 2973 4066 l 2703 3886 l gs col0 s gr 
% Polyline
n 2928 4786 m 3153 4561 l 2973 4066 l gs col0 s gr 
% Polyline
n 3153 4561 m 3378 4786 l gs col0 s gr 
% Polyline
n 3828 4786 m 4053 4561 l gs col0 s gr 
% Polyline
n 453 3436 m 453 5236 l 1353 4336 l 453 3436 l cp gs col0 s gr 
% Polyline
n 453 4336 m 1353 4336 l gs col0 s gr 
% Polyline
n 1353 4336 m 1353 3436 l gs col0 s gr 
% Polyline
n 1353 4336 m 2253 4336 l gs col0 s gr 
% Polyline
n 1353 4336 m 1353 5236 l gs col0 s gr 
% Polyline
n 453 4336 m 1353 5236 l gs col0 s gr 
% Polyline
n 2253 4336 m 1353 5236 l gs col0 s gr 
% Polyline
n 2253 3436 m 453 3436 l 1353 4336 l 2253 3436 l cp gs col0 s gr 
% Polyline
n 453 5236 m 2253 5236 l 1353 4336 l 453 5236 l cp gs col0 s gr 
% Polyline
n 2253 5236 m 2253 3436 l 1353 4336 l 2253 5236 l cp gs col0 s gr 
% Polyline
n 2253 2986 m 2253 1186 l 1353 2086 l 2253 2986 l cp gs col0 s gr 
% Polyline
n 453 1186 m 453 2986 l 1353 2086 l 453 1186 l cp gs col0 s gr 
% Polyline
n 453 2986 m 2253 2986 l 1353 2086 l 453 2986 l cp gs col0 s gr 
% Polyline
n 2253 1186 m 453 1186 l 1353 2086 l 2253 1186 l cp gs col0 s gr 
% Polyline
n 453 2086 m 1353 2086 l gs col0 s gr 
% Polyline
n 1353 2086 m 1353 1186 l gs col0 s gr 
% Polyline
n 1353 2086 m 2253 2086 l gs col0 s gr 
% Polyline
n 1353 2086 m 1353 2986 l gs col0 s gr 
% Polyline
n 1353 1186 m 453 2086 l gs col0 s gr 
% Polyline
n 453 2086 m 1353 2986 l gs col0 s gr 
% Polyline
n 543 5596 m 633 6586 l 1083 6136 l 543 5596 l cp gs col0 s gr 
% Polyline
n 1443 5596 m 2343 5506 l 1623 6586 l cp gs col0 s gr 
% Polyline
n 1623 6586 m 2523 6586 l 2343 5506 l cp gs col0 s gr 
% Polyline
n 2523 6586 m 2433 7666 l 1623 6586 l cp gs col0 s gr 
% Polyline
n 1623 6586 m 1533 7666 l 2433 7666 l cp gs col0 s gr 
% Polyline
n 1623 6586 m 1083 6136 l 633 6586 l cp gs col0 s gr 
% Polyline
n 633 6586 m 543 7666 l 993 7126 l cp gs col0 s gr 
% Polyline
n 993 7126 m 543 7666 l 1533 7666 l cp gs col0 s gr 
% Polyline
n 1533 7666 m 1623 6586 l 993 7126 l cp gs col0 s gr 
% Polyline
n 543 5596 m 1443 5596 l 1083 6136 l cp gs col0 s gr 
% Polyline
n 1083 6136 m 1623 6586 l 1443 5596 l cp gs col0 s gr 
% Polyline
n 993 9376 m 1533 9916 l 543 9916 l cp gs col0 s gr 
% Polyline
n 1443 7846 m 2343 7756 l 1623 8836 l cp gs col0 s gr 
% Polyline
n 2523 8836 m 2433 9916 l 1983 9376 l cp gs col0 s gr 
% Polyline
n 543 9916 m 993 9376 l 633 8836 l cp gs col0 s gr 
% Polyline
n 543 7846 m 1623 8836 l 1443 7846 l cp gs col0 s gr 
% Polyline
n 543 7846 m 633 8836 l 1623 8836 l cp gs col0 s gr 
% Polyline
n 1623 8836 m 2343 7756 l 2523 8836 l cp gs col0 s gr 
% Polyline
n 1623 8836 m 633 8836 l 993 9376 l cp gs col0 s gr 
% Polyline
n 1983 9376 m 2433 9916 l 1533 9916 l cp gs col0 s gr 
% Polyline
n 1533 9916 m 1983 9376 l 1623 8836 l cp gs col0 s gr 
% Polyline
n 2804 6069 m 2991 6095 l 3242 5818 l 3216 5570 l gs col0 s gr 
% Polyline
n 2999 6099 m 3284 6384 l 3254 6770 l 2965 7067 l 2796 7097 l gs col0 s gr 
% Polyline
n 2965 7078 m 3205 7412 l 3246 7633 l gs col0 s gr 
% Polyline
n 3212 7419 m 3554 7127 l 4060 7318 l 4214 7637 l gs col0 s gr 
% Polyline
n 4067 7325 m 4412 6875 l 4679 7097 l gs col0 s gr 
% Polyline
n 4416 6875 m 4405 6234 l 4634 6017 l gs col0 s gr 
% Polyline
n 4409 6238 m 3974 5825 l 4116 5525 l gs col0 s gr 
% Polyline
n 3974 5833 m 3561 6084 l 3246 5822 l gs col0 s gr 
% Polyline
n 3554 6092 m 3284 6384 l gs col0 s gr 
% Polyline
n 3257 6774 m 3554 7127 l gs col0 s gr 
% Polyline
n 3291 7829 m 3437 8084 l 3130 8481 l 2834 8309 l gs col0 s gr 
% Polyline
n 3130 8485 m 3291 9029 l 2999 9325 l 2826 9392 l gs col0 s gr 
% Polyline
n 2999 9332 m 3254 9662 l 3310 9887 l gs col0 s gr 
% Polyline
n 3261 9666 m 3599 9385 l 3981 9362 l 4240 9677 l 4247 9884 l gs col0 s gr 
% Polyline
n 4247 9681 m 4532 9374 l 4716 9366 l gs col0 s gr 
% Polyline
n 4532 9370 m 4251 9010 l 4412 8466 l 4671 8275 l gs col0 s gr 
% Polyline
n 4412 8474 m 4026 8084 l 4116 7780 l gs col0 s gr 
% Polyline
n 4022 8084 m 3449 8087 l gs col0 s gr 
% Polyline
n 3291 9032 m 3599 9374 l gs col0 s gr 
% Polyline
n 3989 9362 m 4247 9014 l gs col0 s gr 
% Polyline
 [60] 0 sd
n 453 1186 m 543 1006 l gs col0 s gr  [] 0 sd
% Polyline
 [60] 0 sd
n 1353 1186 m 1443 1006 l gs col0 s gr  [] 0 sd
% Polyline
 [60] 0 sd
n 2253 1186 m 2343 916 l gs col0 s gr  [] 0 sd
% Polyline
 [60] 0 sd
n 903 1636 m 1083 1546 l gs col0 s gr  [] 0 sd
% Polyline
 [60] 0 sd
n 1353 2086 m 1623 1996 l gs col0 s gr  [] 0 sd
% Polyline
 [60] 0 sd
n 2253 2086 m 2523 1996 l gs col0 s gr  [] 0 sd
% Polyline
 [60] 0 sd
n 453 2086 m 633 1996 l gs col0 s gr  [] 0 sd
% Polyline
 [60] 0 sd
n 903 2536 m 993 2536 l gs col0 s gr  [] 0 sd
% Polyline
 [60] 0 sd
n 453 2986 m 543 3076 l gs col0 s gr  [] 0 sd
% Polyline
 [60] 0 sd
n 1353 2986 m 1533 3076 l gs col0 s gr  [] 0 sd
% Polyline
 [60] 0 sd
n 2253 2986 m 2433 3076 l gs col0 s gr  [] 0 sd
% Polyline
 [60] 0 sd
n 453 3436 m 543 3256 l gs col0 s gr  [] 0 sd
% Polyline
 [60] 0 sd
n 453 4336 m 633 4246 l gs col0 s gr  [] 0 sd
% Polyline
 [60] 0 sd
n 453 5236 m 543 5326 l gs col0 s gr  [] 0 sd
% Polyline
 [60] 0 sd
n 903 4786 m 993 4786 l gs col0 s gr  [] 0 sd
% Polyline
 [60] 0 sd
n 1353 3436 m 1443 3256 l gs col0 s gr  [] 0 sd
% Polyline
 [60] 0 sd
n 1353 4336 m 1623 4246 l gs col0 s gr  [] 0 sd
% Polyline
 [60] 0 sd
n 1353 5236 m 1533 5326 l gs col0 s gr  [] 0 sd
% Polyline
 [60] 0 sd
n 2253 5236 m 2433 5326 l gs col0 s gr  [] 0 sd
% Polyline
 [60] 0 sd
n 2253 4336 m 2523 4246 l gs col0 s gr  [] 0 sd
% Polyline
 [60] 0 sd
n 2253 3436 m 2343 3166 l gs col0 s gr  [] 0 sd
% Polyline
 [60] 0 sd
n 1803 4786 m 1983 4786 l gs col0 s gr  [] 0 sd
% Polyline
n 2700 1187 m 4500 1187 l 4500 2987 l 2700 2987 l cp gs col0 s gr 
% Polyline
n 2700 3435 m 4500 3435 l 4500 5235 l 2700 5235 l cp gs col0 s gr 
% Polyline
n 2748 5567 m 2838 6553 l 2748 7637 l 4642 7637 l 4731 6549 l 4555 5477 l
 3648 5563 l cp gs col0 s gr 
% Polyline
n 2786 7822 m 2876 8808 l 2786 9892 l 4680 9892 l 4769 8804 l 4593 7732 l
 3686 7818 l cp gs col0 s gr 
$F2psEnd
rs
showpage
