%!PS-Adobe-2.0 EPSF-2.0
%%BoundingBox: 14 523 298 754
%%Title: /tmpdir/jbehrens/JB-Local/TeX/GAMM/Vort198/para-grid.eps
%%CreationDate: 5:15 PM January 21, 1998
%%Pages: 1
%%EndComments
%%BeginProlog
%%BeginResource ShowcaseResource
1 setlinejoin
/M  { moveto } bind def /S { show  } bind def
/R { rmoveto } bind def /L { lineto } bind def
/B { newpath 0 0 M 0 1 L 1 1 L 1 0 L closepath } bind def
/CS { closepath stroke } bind def
/S {
    /fixwidth exch def
    dup length /nchars exch def
    dup stringwidth pop
    fixwidth exch sub nchars div
    exch 0 exch ashow
} def
/bwproc {
	rgbproc
	dup length 3 idiv string 0 3 0
	5 -1 roll {
	add 2 1 roll 1 sub dup 0 eq
	{ pop 3 idiv 3 -1 roll dup 4 -1 roll dup
	  3 1 roll 5 -1 roll put 1 add 3 0 }
	{ 2 1 roll } ifelse
	} forall
	pop pop pop
} def
systemdict /colorimage known not {
	/colorimage {
		pop
		pop
		/rgbproc exch def
		{ bwproc } image
	} def
} if
1 1 scale
0 setlinewidth
/drawtri {
/y3 exch def
/x3 exch def
/y2 exch def
/x2 exch def
/y1 exch def
/x1 exch def
0 setgray
newpath
x1 y1 moveto
x2 y2 lineto
x3 y3 lineto
closepath
stroke
} bind def
/filltri {
/y3 exch def
/x3 exch def
/y2 exch def
/x2 exch def
/y1 exch def
/x1 exch def
newpath
x1 y1 moveto
x2 y2 lineto
x3 y3 lineto
closepath
fill
} bind def
/cliptri {
/y3 exch def
/x3 exch def
/y2 exch def
/x2 exch def
/y1 exch def
/x1 exch def
0 setgray
newpath
x1 y1 moveto
x2 y2 lineto
x3 y3 lineto
closepath
clip
} bind def
/imgscanrgb {
gsave
translate
/scandy exch def
/scandx exch def
/istr scandx 3 mul string def
scandx scandy scale
scandx scandy 8
[scandx 0 0 scandy neg 0 scandy]
{currentfile istr readhexstring pop}
false 3
colorimage
grestore
} bind def
/imgscanbw {
gsave
translate
/scandy exch def
/scandx exch def
/istr scandx string def
scandx scandy scale
scandx scandy 8
[scandx 0 0 scandy neg 0 scandy]
{currentfile istr readhexstring pop}
image
grestore
} bind def
/showcaseisoencoding [
/.notdef /.notdef /.notdef /.notdef
/.notdef /.notdef /.notdef /.notdef
/.notdef /.notdef /.notdef /.notdef
/.notdef /.notdef /.notdef /.notdef
/.notdef /.notdef /.notdef /.notdef
/.notdef /.notdef /.notdef /.notdef
/.notdef /.notdef /.notdef /.notdef
/.notdef /.notdef /.notdef /.notdef
/space /exclam /quotedbl /numbersign
/dollar /percent /ampersand /quoteright
/parenleft /parenright /asterisk /plus
/comma /minus /period /slash
/zero /one /two /three /four /five /six /seven
/eight /nine /colon /semicolon
/less /equal /greater /question
/at /A /B /C /D /E /F /G
/H /I /J /K /L /M /N /O
/P /Q /R /S /T /U /V /W
/X /Y /Z /bracketleft
/backslash /bracketright /asciicircum /underscore
/quoteleft /a /b /c /d /e /f /g
/h /i /j /k /l /m /n /o
/p /q /r /s /t /u /v /w
/x /y /z /braceleft
/bar /braceright /asciitilde /guilsinglright
/fraction /florin /quotesingle /quotedblleft
/guilsinglleft /fi /fl /endash
/dagger /daggerdbl /bullet /quotesinglbase
/quotedblbase /quotedblright /ellipsis /trademark
/dotlessi /grave /acute /circumflex
/tilde /macron /breve /dotaccent
/dieresis /perthousand /ring /cedilla
/Ydieresis /hungarumlaut /ogonek /caron
/emdash /exclamdown /cent /sterling
/currency /yen /brokenbar /section
/dieresis /copyright /ordfeminine /guillemotleft
/logicalnot /hyphen /registered /macron
/degree /plusminus /twosuperior /threesuperior
/acute /mu /paragraph /periodcentered
/cedilla /onesuperior /ordmasculine /guillemotright
/onequarter /onehalf /threequarters /questiondown
/Agrave /Aacute /Acircumflex /Atilde
/Adieresis /Aring /AE /Ccedilla
/Egrave /Eacute /Ecircumflex /Edieresis
/Igrave /Iacute /Icircumflex /Idieresis
/Eth /Ntilde /Ograve /Oacute
/Ocircumflex /Otilde /Odieresis /multiply
/Oslash /Ugrave /Uacute /Ucircumflex
/Udieresis /Yacute /Thorn /germandbls
/agrave /aacute /acircumflex /atilde
/adieresis /aring /ae /ccedilla
/egrave /eacute /ecircumflex /edieresis
/igrave /iacute /icircumflex /idieresis
/eth /ntilde /ograve /oacute
/ocircumflex /otilde /odieresis /divide
/oslash /ugrave /uacute /ucircumflex
/udieresis /yacute /thorn /ydieresis ] def
/showcasedingbatencoding [
/.notdef /.notdef /.notdef /.notdef
/.notdef /.notdef /.notdef /.notdef
/.notdef /.notdef /.notdef /.notdef
/.notdef /.notdef /.notdef /.notdef
/.notdef /.notdef /.notdef /.notdef
/.notdef /.notdef /.notdef /.notdef
/.notdef /.notdef /.notdef /.notdef
/.notdef /.notdef /.notdef /.notdef
/.notdef /a1 /a2 /a202 /a3 /a4 /a5 /a119 /a118 /a117
/a11 /a12 /a13 /a14 /a15 /a16 /a105 /a17 /a18 /a19
/a20 /a21 /a22 /a23 /a24 /a25 /a26 /a27 /a28 /a6 /a7
/a8 /a9 /a10 /a29
/a30 /a31 /a32 /a33 /a34 /a35 /a36 /a37 /a38 /a39
/a40 /a41 /a42 /a43 /a44 /a45 /a46 /a47 /a48 /a49
/a50 /a51 /a52 /a53 /a54 /a55 /a56 /a57 /a58 /a59
/a60 /a61 /a62 /a63 /a64 /a65 /a66 /a67 /a68 /a69
/a70 /a71 /a72 /a73 /a74 /a203 /a75 /a204 /a76 /a77 /a78
/a79 /a81 /a82 /a83 /a84 /a97 /a98 /a99 /a100 /.notdef
/a205 /a85 /a206 /a86 /a87 /a88 /a89 /a90 /a91 /a92 /a93
/a94 /a95 /a96
/.notdef /.notdef /.notdef /.notdef /.notdef /.notdef
/.notdef /.notdef /.notdef /.notdef /.notdef /.notdef
/.notdef /.notdef /.notdef /.notdef /.notdef /.notdef
/.notdef /a101 /a102 /a103 /a104 /a106 /a107 /a108
/a112 /a111 /a110 /a109
/a120 /a121 /a122 /a123 /a124 /a125 /a126 /a127 /a128 /a129
/a130 /a131 /a132 /a133 /a134 /a135 /a136 /a137 /a138 /a139
/a140 /a141 /a142 /a143 /a144 /a145 /a146 /a147 /a148 /a149
/a150 /a151 /a152 /a153 /a154 /a155 /a156 /a157 /a158 /a159
/a160 /a161 /a163 /a164 /a196 /a165 /a192 /a166 /a167 /a168
/a169 /a170 /a171 /a172 /a173 /a162 /a174 /a175 /a176 /a177
/a178 /a179 /a193 /a180 /a199 /a181 /a200 /a182 /.notdef
/a201 /a183 /a184 /a197 /a185 /a194 /a198 /a186 /a195 /a187
/a188 /a189 /a190 /a191 /.notdef
] def
/Helvetica-Bold findfont
dup length dict begin
  {1 index /FID ne {def} {pop pop} ifelse} forall
  /Encoding showcaseisoencoding def
  currentdict
end
/Helvetica-Bold-SHOWISO exch definefont pop
/newfont 10 dict def
newfont begin

 /FontType 3 def
 /FontMatrix [1 0 0 1 0 0] def
 /FontBBox [0 0 1 1] def
 /Encoding 256 array def
 0 1 255 {Encoding exch /.notdef put} for

 /CharProcs 1 dict def
 CharProcs begin
 /.notdef {} def

end

 /BuildChar {
  1 0
  0 0 1 1
  setcachedevice
  exch begin
  Encoding exch get
  CharProcs exch get
  end
  exec
 } def
end
/PatternFont newfont definefont pop

%%EndResource
%%EndProlog
%%BeginSetup
%%EndSetup
%%Page: label 1
gsave
/saveit save def
gsave
gsave
matrix currentmatrix
[283.5 0 0 -170 14 693] concat
B
setmatrix
0.219608 0.556863 0.556863 setrgbcolor
gsave fill grestore
grestore
gsave
matrix currentmatrix
[113.5 0 0 -113.5 28.5 651.5] concat
B
setmatrix
0 0 0 setrgbcolor
1.000000 setlinewidth
gsave stroke grestore
grestore
gsave
0 0 0 setrgbcolor
0.500000 setlinewidth
newpath
28.5 651.5 M
142 538 L
stroke
grestore
gsave
0 0 0 setrgbcolor
0.500000 setlinewidth
newpath
142 651 M
28.5 538 L
stroke
grestore
gsave
0 0 0 setrgbcolor
0.500000 setlinewidth
newpath
85.5 651.5 M
85.5 538 L
stroke
grestore
gsave
0 0 0 setrgbcolor
0.500000 setlinewidth
newpath
28.5 594.5 M
142 594.5 L
stroke
grestore
gsave
0 0 0 setrgbcolor
0.500000 setlinewidth
newpath
85.5 651.5 M
28.5 594.5 L
stroke
grestore
gsave
0 0 0 setrgbcolor
0.500000 setlinewidth
newpath
85.5 651.5 M
142 594.5 L
stroke
grestore
gsave
0 0 0 setrgbcolor
0.500000 setlinewidth
newpath
142.5 595 M
85.5 538 L
stroke
grestore
gsave
0 0 0 setrgbcolor
0.500000 setlinewidth
newpath
28.5 595 M
85 538 L
stroke
grestore
gsave
matrix currentmatrix
[113.5 0 0 -113.5 170.5 651.5] concat
B
setmatrix
0 0 0 setrgbcolor
1.000000 setlinewidth
gsave stroke grestore
grestore
gsave
0 0 0 setrgbcolor
0.500000 setlinewidth
newpath
170.5 651.5 M
284 538 L
stroke
grestore
gsave
0 0 0 setrgbcolor
0.500000 setlinewidth
newpath
284 651 M
170.5 538 L
stroke
grestore
gsave
0 0 0 setrgbcolor
0.500000 setlinewidth
newpath
227.5 651.5 M
227.5 538 L
stroke
grestore
gsave
0 0 0 setrgbcolor
0.500000 setlinewidth
newpath
170.5 594.5 M
284 594.5 L
stroke
grestore
gsave
0 0 0 setrgbcolor
0.500000 setlinewidth
newpath
227.5 651.5 M
170.5 594.5 L
stroke
grestore
gsave
0 0 0 setrgbcolor
0.500000 setlinewidth
newpath
227.5 651.5 M
284 594.5 L
stroke
grestore
gsave
0 0 0 setrgbcolor
0.500000 setlinewidth
newpath
284.5 595 M
227.5 538 L
stroke
grestore
gsave
0 0 0 setrgbcolor
0.500000 setlinewidth
newpath
170.5 595 M
227 538 L
stroke
grestore
gsave
0 0 0 setrgbcolor
0.500000 setlinewidth
newpath
113.5 623 M
113.5 538 L
stroke
grestore
gsave
0 0 0 setrgbcolor
0.500000 setlinewidth
newpath
57 566.5 M
113.5 566.5 L
stroke
grestore
gsave
0 0 0 setrgbcolor
0.500000 setlinewidth
newpath
113.5 594.5 M
85.5 566.5 L
stroke
grestore
gsave
0 0 0 setrgbcolor
0.500000 setlinewidth
newpath
85.5 566.5 M
113.5 538 L
stroke
grestore
gsave
0 0 0 setrgbcolor
0.500000 setlinewidth
newpath
99.5 580.5 M
99.5 552 L
stroke
grestore
gsave
0 0 0 setrgbcolor
0.500000 setlinewidth
newpath
198.5 651.5 M
198.5 538 L
stroke
grestore
gsave
0 0 0 setrgbcolor
0.500000 setlinewidth
newpath
255.5 651.5 M
255.5 538 L
stroke
grestore
gsave
0 0 0 setrgbcolor
0.500000 setlinewidth
newpath
170.5 566.5 M
284 566.5 L
stroke
grestore
gsave
0 0 0 setrgbcolor
0.500000 setlinewidth
newpath
170.5 623 M
284 623 L
stroke
grestore
gsave
0 0 0 setrgbcolor
0.500000 setlinewidth
newpath
226.5 622.5 M
198.5 594.5 L
stroke
grestore
gsave
0 0 0 setrgbcolor
0.500000 setlinewidth
newpath
255 594.5 M
227 566.5 L
stroke
grestore
gsave
0 0 0 setrgbcolor
0.500000 setlinewidth
newpath
283.5 566 M
255.5 538 L
stroke
grestore
gsave
0 0 0 setrgbcolor
0.500000 setlinewidth
newpath
199 594.5 M
255 538 L
stroke
grestore
gsave
0 0 0 setrgbcolor
0.500000 setlinewidth
newpath
227 623 M
283 566.5 L
stroke
grestore
gsave
0 0 0 setrgbcolor
0.500000 setlinewidth
newpath
213 580.5 M
269.5 580.5 L
stroke
grestore
gsave
0 0 0 setrgbcolor
0.500000 setlinewidth
newpath
241 552 M
283.5 552 L
stroke
grestore
gsave
0 0 0 setrgbcolor
0.500000 setlinewidth
newpath
241 609 M
241 552 L
stroke
grestore
gsave
0 0 0 setrgbcolor
0.500000 setlinewidth
newpath
269.5 580.5 M
269.5 552 L
stroke
grestore
gsave
0 0 0 setrgbcolor
0.500000 setlinewidth
newpath
227 580.5 M
255.5 552 L
stroke
grestore
gsave
0 0 0 setrgbcolor
0.500000 setlinewidth
newpath
255.5 580 M
241 566.5 L
stroke
grestore
gsave
1 0 0 setrgbcolor
2.000000 setlinewidth
newpath
227 651.5 M
227 594.5 L
241 580.5 L
241 566.5 L
255.5 552 L
269.5 552 L
283.5 538 L
stroke
grestore
gsave
matrix currentmatrix
[113.5 0 0 -14.5 28 679] concat
B
setmatrix
0 0 0 setrgbcolor
1.000000 setlinewidth
gsave stroke grestore
grestore
gsave
gsave
matrix currentmatrix
[1 0 0 1 194.243 664.75] concat
newpath
0 0 M 0 14 L 65.014 14 L 65.014 0 L
closepath setmatrix
0 0 0 setrgbcolor
grestore
newpath
191.743 662.25 M 191.743 681.25 L 261.757 681.25 L 261.757 662.25 L
closepath clip newpath
0 0 0 setrgbcolor
matrix currentmatrix
[1 0 0 1 194.243 664.75] concat
/Helvetica-Bold-SHOWISO findfont 14 scalefont setfont
0 0 0 setrgbcolor
0 2.47059 M (GRID_api) 63.014 S
setmatrix
grestore
gsave
1 0 0 setrgbcolor
2.000000 setlinewidth
newpath
226.5 679 M
226.5 664.5 L
stroke
grestore
gsave
gsave
matrix currentmatrix
[1 0 0 1 52.243 664.75] concat
newpath
0 0 M 0 14 L 65.014 14 L 65.014 0 L
closepath setmatrix
0 0 0 setrgbcolor
grestore
newpath
49.743 662.25 M 49.743 681.25 L 119.757 681.25 L 119.757 662.25 L
closepath clip newpath
0 0 0 setrgbcolor
matrix currentmatrix
[1 0 0 1 52.243 664.75] concat
/Helvetica-Bold-SHOWISO findfont 14 scalefont setfont
0 0 0 setrgbcolor
0 2.47059 M (GRID_api) 63.014 S
setmatrix
grestore
gsave
matrix currentmatrix
[283.5 0 0 -42.5 14 749.5] concat
B
setmatrix
0.556863 0.219608 0.556863 setrgbcolor
gsave fill grestore
grestore
gsave
gsave
matrix currentmatrix
[1 0 0 1 91.479 721.5] concat
newpath
0 0 M 0 14 L 128.042 14 L 128.042 0 L
closepath setmatrix
0.776471 0.439216 0.439216 setrgbcolor
grestore
newpath
88.979 719 M 88.979 738 L 222.021 738 L 222.021 719 L
closepath clip newpath
0 0 0 setrgbcolor
matrix currentmatrix
[1 0 0 1 91.479 721.5] concat
/Helvetica-Bold-SHOWISO findfont 14 scalefont setfont
0 0 0 setrgbcolor
0 2.47059 M (SLM, Solv, VisOGL) 126.042 S
setmatrix
grestore
gsave
0.776471 0.439216 0.439216 setrgbcolor
2.000000 setlinewidth
newpath
155.5 735.5 M
155.5 721.5 L
stroke
grestore
gsave
matrix currentmatrix
[113.5 0 0 -14.5 170 679] concat
B
setmatrix
0 0 0 setrgbcolor
1.000000 setlinewidth
gsave stroke grestore
grestore
gsave
matrix currentmatrix
[255 0 0 -14 28 735.5] concat
B
setmatrix
0 0 0 setrgbcolor
1.000000 setlinewidth
gsave stroke grestore
grestore
gsave
0.666667 0.666667 0.666667 setrgbcolor
newpath
123.469 740 M
118.329 740.575 L
114.908 742.299 L
113.206 745.173 L
113 747 L
113 747 L
113 747 L
113 747 L
113.86 750.437 L
116.439 752.724 L
120.737 753.862 L
123.469 754 L
123.469 754 L
124.446 754 L
126.691 754 L
130.018 754 L
134.242 754 L
139.175 754 L
144.632 754 L
150.426 754 L
156.372 754 L
162.282 754 L
167.971 754 L
173.253 754 L
177.941 754 L
181.849 754 L
184.791 754 L
186.58 754 L
187.031 754 L
187.031 754 L
192.171 753.425 L
195.592 751.701 L
197.294 748.827 L
197.5 747 L
197.5 747 L
197.5 747 L
197.5 747 L
196.64 743.563 L
194.061 741.276 L
189.763 740.138 L
187.031 740 L
187.031 740 L
186.087 740 L
183.932 740 L
180.738 740 L
176.679 740 L
171.927 740 L
166.657 740 L
161.04 740 L
155.25 740 L
149.46 740 L
143.843 740 L
138.573 740 L
133.821 740 L
129.762 740 L
126.568 740 L
124.413 740 L
123.469 740 L
closepath
eofill
0.776471 0.439216 0.439216 setrgbcolor
grestore
gsave
gsave
matrix currentmatrix
[1 0 0 1 116.135 740] concat
newpath
0 0 M 0 14 L 78.23 14 L 78.23 0 L
closepath setmatrix
0.776471 0.439216 0.439216 setrgbcolor
grestore
newpath
113.635 737.5 M 113.635 756.5 L 196.865 756.5 L 196.865 737.5 L
closepath clip newpath
0 0 0 setrgbcolor
matrix currentmatrix
[1 0 0 1 116.135 740] concat
/Helvetica-Bold-SHOWISO findfont 14 scalefont setfont
0 0 0 setrgbcolor
0 2.47059 M (Application) 76.23 S
setmatrix
grestore
gsave
0.666667 0.666667 0.666667 setrgbcolor
newpath
123.969 684.5 M
116.919 685.786 L
113.714 689.643 L
113.5 691.5 L
113.5 691.5 L
113.5 691.5 L
113.5 691.5 L
115.423 696.214 L
121.191 698.357 L
123.969 698.5 L
123.969 698.5 L
124.946 698.5 L
127.191 698.5 L
130.518 698.5 L
134.742 698.5 L
139.675 698.5 L
145.132 698.5 L
150.926 698.5 L
156.872 698.5 L
162.782 698.5 L
168.471 698.5 L
173.753 698.5 L
178.441 698.5 L
182.349 698.5 L
185.291 698.5 L
187.08 698.5 L
187.531 698.5 L
187.531 698.5 L
194.582 697.214 L
197.786 693.357 L
198 691.5 L
198 691.5 L
198 691.5 L
198 691.5 L
196.077 686.786 L
190.309 684.643 L
187.531 684.5 L
187.531 684.5 L
186.587 684.5 L
184.432 684.5 L
181.238 684.5 L
177.179 684.5 L
172.427 684.5 L
167.157 684.5 L
161.54 684.5 L
155.75 684.5 L
149.96 684.5 L
144.343 684.5 L
139.073 684.5 L
134.321 684.5 L
130.262 684.5 L
127.068 684.5 L
124.913 684.5 L
123.969 684.5 L
closepath
eofill
0.776471 0.439216 0.439216 setrgbcolor
grestore
gsave
gsave
matrix currentmatrix
[1 0 0 1 126.743 684.5] concat
newpath
0 0 M 0 14 L 58.014 14 L 58.014 0 L
closepath setmatrix
0.776471 0.439216 0.439216 setrgbcolor
grestore
newpath
124.243 682 M 124.243 701 L 187.257 701 L 187.257 682 L
closepath clip newpath
0 0 0 setrgbcolor
matrix currentmatrix
[1 0 0 1 126.743 684.5] concat
/Helvetica-Bold-SHOWISO findfont 14 scalefont setfont
0 0 0 setrgbcolor
0 2.47059 M (GridGen) 56.014 S
setmatrix
grestore
grestore
showpage
saveit restore
grestore
%%EOF
