%!PS-Adobe-2.0
%%Title: /tmp/xfig-fig016113
%%Creator: fig2dev Version 2.1.8 Patchlevel 0
%%CreationDate: Thu Jul 30 10:22:40 1998
%%For: bertram@hpux05 (Bertram Lueckehe,FB08,,)
%%Orientation: Portrait
%%BoundingBox: 36 160 558 682
%%Pages: 1
%%EndComments
/$F2psDict 200 dict def 
$F2psDict begin
$F2psDict /mtrx matrix put
/l {lineto} bind def
/m {moveto} bind def
/s {stroke} bind def
/n {newpath} bind def
/gs {gsave} bind def
/gr {grestore} bind def
/clp {closepath} bind def
/graycol {dup dup currentrgbcolor 4 -2 roll mul 4 -2 roll mul
4 -2 roll mul setrgbcolor} bind def
/col-1 {} def
/col0 {0 0 0 setrgbcolor} bind def
/col1 {0 0 1 setrgbcolor} bind def
/col2 {0 1 0 setrgbcolor} bind def
/col3 {0 1 1 setrgbcolor} bind def
/col4 {1 0 0 setrgbcolor} bind def
/col5 {1 0 1 setrgbcolor} bind def
/col6 {1 1 0 setrgbcolor} bind def
/col7 {1 1 1 setrgbcolor} bind def
/col8 {.68 .85 .9 setrgbcolor} bind def
/col9 {0 .39 0 setrgbcolor} bind def
/col10 {.65 .17 .17 setrgbcolor} bind def
/col11 {1 .51 0 setrgbcolor} bind def
/col12 {.63 .13 .94 setrgbcolor} bind def
/col13 {1 .75 .8 setrgbcolor} bind def
/col14 {.7 .13 .13 setrgbcolor} bind def
/col15 {1 .84 0 setrgbcolor} bind def
	end
/$F2psBegin {$F2psDict begin /$F2psEnteredState save def} def
/$F2psEnd {$F2psEnteredState restore end} def
%%EndProlog

$F2psBegin
0 setlinecap 0 setlinejoin
18.5 700.0 translate 0.900 -0.900 scale
0.500 setlinewidth
% Polyline
n 119 179 m 119 119 l  239 119 l  239 179 l  clp gs col-1 s gr
% Polyline
n 179 319 m 179 219 l  119 219 l  119 319 l  clp gs col-1 s gr
% Polyline
n 379 179 m 379 59 l  119 59 l  119 179 l  clp gs col-1 s gr
% Polyline
n 379 259 m 379 219 l  219 219 l  219 259 l  clp gs col-1 s gr
% Polyline
n 379 319 m 379 279 l  219 279 l  219 319 l  clp gs col-1 s gr
% Polyline
n 599 319 m 599 279 l  419 279 l  419 319 l  clp gs col-1 s gr
% Polyline
n 299 459 m 299 359 l  119 359 l  119 459 l  clp gs col-1 s gr
% Polyline
n 79 39 m 249 39 l  249 59 l gs col-1 s gr
n 251.000 51.000 m 249.000 59.000 l 247.000 51.000 l gs 2 setlinejoin col-1 s gr
% Polyline
n 139 179 m 139 199 l  79 199 l gs col-1 s gr
n 87.000 201.000 m 79.000 199.000 l 87.000 197.000 l gs 2 setlinejoin col-1 s gr
% Polyline
n 309 179 m 309 199 l  159 199 l  159 219 l gs col-1 s gr
n 161.000 211.000 m 159.000 219.000 l 157.000 211.000 l gs 2 setlinejoin col-1 s gr
% Polyline
n 179 239 m 219 239 l gs col-1 s gr
n 211.000 237.000 m 219.000 239.000 l 211.000 241.000 l gs 2 setlinejoin col-1 s gr
% Polyline
n 179 299 m 219 299 l gs col-1 s gr
n 211.000 297.000 m 219.000 299.000 l 211.000 301.000 l gs 2 setlinejoin col-1 s gr
% Polyline
n 379 299 m 419 299 l gs col-1 s gr
n 411.000 297.000 m 419.000 299.000 l 411.000 301.000 l gs 2 setlinejoin col-1 s gr
% Polyline
n 79 339 m 209 339 l  209 359 l gs col-1 s gr
n 211.000 351.000 m 209.000 359.000 l 207.000 351.000 l gs 2 setlinejoin col-1 s gr
% Polyline
n 209 459 m 209 479 l  79 479 l gs col-1 s gr
n 87.000 481.000 m 79.000 479.000 l 87.000 477.000 l gs 2 setlinejoin col-1 s gr
% Polyline
n 299 559 m 299 519 l  119 519 l  119 559 l  clp gs col-1 s gr
% Polyline
n 79 499 m 209 499 l  209 519 l gs col-1 s gr
n 211.000 511.000 m 209.000 519.000 l 207.000 511.000 l gs 2 setlinejoin col-1 s gr
% Polyline
n 209 559 m 209 579 l  79 579 l gs col-1 s gr
n 87.000 581.000 m 79.000 579.000 l 87.000 577.000 l gs 2 setlinejoin col-1 s gr
% Polyline
n 79 599 m 79 19 l  19 19 l  19 599 l  clp gs col-1 s gr
	[4.000000] 0 setdash
% Polyline
n 299 539 m 319 539 l  319 319 l gs col-1 s gr
	[] 0 setdash
n 317.000 327.000 m 319.000 319.000 l 321.000 327.000 l gs 2 setlinejoin col-1 s gr
	[4.000000] 0 setdash
% Polyline
n 279 359 m 279 319 l gs col-1 s gr
	[] 0 setdash
n 277.000 327.000 m 279.000 319.000 l 281.000 327.000 l gs 2 setlinejoin col-1 s gr
% Polyline
n 439 79 m 499 79 l gs col-1 s gr
n 491.000 77.000 m 499.000 79.000 l 491.000 81.000 l gs 2 setlinejoin col-1 s gr
	[4.000000] 0 setdash
% Polyline
n 439 119 m 499 119 l gs col-1 s gr
	[] 0 setdash
n 491.000 117.000 m 499.000 119.000 l 491.000 121.000 l gs 2 setlinejoin col-1 s gr
	1 setlinecap [1 3.000000] 3.000000 setdash
% Polyline
n 299 399 m 359 399 l gs col-1 s gr
	[] 0 setdash 0 setlinecap
n 351.000 397.000 m 359.000 399.000 l 351.000 401.000 l gs 2 setlinejoin col-1 s gr
	1 setlinecap [1 3.000000] 3.000000 setdash
% Polyline
n 459 354 m 459 319 l gs col-1 s gr
	[] 0 setdash 0 setlinecap
n 457.000 327.000 m 459.000 319.000 l 461.000 327.000 l gs 2 setlinejoin col-1 s gr
% Polyline
n 379 119 m 379 99 l  119 99 l  119 119 l  clp gs col-1 s gr
	1 setlinecap [1 3.000000] 3.000000 setdash
% Polyline
n 479 459 m 359 459 l  359 359 l  479 359 l  clp gs col-1 s gr
	[] 0 setdash 0 setlinecap
/Times-Roman findfont 12.00 scalefont setfont
239 304 m 
gs 1 -1 scale (chkfordata) col-1 show gr
	1 setlinecap [1 3.000000] 3.000000 setdash
% Polyline
n 439 159 m 499 159 l gs col-1 s gr
	[] 0 setdash 0 setlinecap
n 491.000 157.000 m 499.000 159.000 l 491.000 161.000 l gs 2 setlinejoin col-1 s gr
/Times-Roman findfont 12.00 scalefont setfont
139 134 m 
gs 1 -1 scale (parent:) col-1 show gr
/Times-Roman findfont 12.00 scalefont setfont
139 154 m 
gs 1 -1 scale (return to main part) col-1 show gr
/Times-Roman findfont 12.00 scalefont setfont
259 134 m 
gs 1 -1 scale (child:) col-1 show gr
/Times-Roman findfont 12.00 scalefont setfont
259 152 m 
gs 1 -1 scale (open GL-windows) col-1 show gr
/Times-Roman findfont 12.00 scalefont setfont
259 170 m 
gs 1 -1 scale (enter glutMainLoop) col-1 show gr
/Times-Roman findfont 12.00 scalefont setfont
234 114 m 
gs 1 -1 scale (fork) col-1 show gr
/Times-Roman findfont 12.00 scalefont setfont
204 84 m 
gs 1 -1 scale (graphics_init_) col-1 show gr
/Times-Roman findfont 12.00 scalefont setfont
239 244 m 
gs 1 -1 scale (button and menu functions) col-1 show gr
/Times-Roman findfont 12.00 scalefont setfont
134 274 m 
gs 1 -1 scale (GLUT) col-1 show gr
/Times-Roman findfont 12.00 scalefont setfont
139 384 m 
gs 1 -1 scale (graphics_draw) col-1 show gr
/Times-Roman findfont 12.00 scalefont setfont
139 404 m 
gs 1 -1 scale (copy graphics data to child) col-1 show gr
/Times-Roman findfont 12.00 scalefont setfont
139 422 m 
gs 1 -1 scale (process and set flag) col-1 show gr
/Times-Roman findfont 12.00 scalefont setfont
139 544 m 
gs 1 -1 scale (graphics_quit) col-1 show gr
/Times-Roman findfont 12.00 scalefont setfont
519 84 m 
gs 1 -1 scale (function call) col-1 show gr
/Times-Roman findfont 12.00 scalefont setfont
519 124 m 
gs 1 -1 scale (flag) col-1 show gr
/Times-Roman findfont 12.00 scalefont setfont
379 384 m 
gs 1 -1 scale (graphics data) col-1 show gr
/Times-Roman findfont 12.00 scalefont setfont
379 402 m 
gs 1 -1 scale (in shared memory) col-1 show gr
/Times-Roman findfont 12.00 scalefont setfont
519 164 m 
gs 1 -1 scale (data flow) col-1 show gr
/Times-Roman findfont 12.00 scalefont setfont
439 304 m 
gs 1 -1 scale (draw_it \(main draw function\)) col-1 show gr
/Times-Roman findfont 24.00 scalefont setfont
379 534 m 
gs 1 -1 scale (Main structure of ) col-1 show gr
/Times-Roman findfont 24.00 scalefont setfont
419 569 m 
gs 1 -1 scale (cfiles.c) col-1 show gr
/Times-Roman findfont 12.00 scalefont setfont
449 594 m 
gs 1 -1 scale (30.7.98 bertram lueckehe) dup stringwidth pop 2 div neg 0 rmoveto  col-1 show gr
/Times-Roman findfont 12.00 scalefont setfont
29 304 m 
gs 1 -1 scale (Main) col-1 show gr
/Times-Roman findfont 12.00 scalefont setfont
29 324 m 
gs 1 -1 scale (program) col-1 show gr
showpage
$F2psEnd
