%!PS-Adobe-2.0 EPSF-2.0
%%BoundingBox: 193 366 455 704
%%Title: /tmpdir/jbehrens/JB-Local/Flash/doc/Triang.ps
%%CreationDate: 1:29 PM December 15, 1997
%%Pages: 1
%%EndComments
%%BeginProlog
%%BeginResource ShowcaseResource
1 setlinejoin
/M  { moveto } bind def /S { show  } bind def
/R { rmoveto } bind def /L { lineto } bind def
/B { newpath 0 0 M 0 1 L 1 1 L 1 0 L closepath } bind def
/CS { closepath stroke } bind def
/S {
    /fixwidth exch def
    dup length /nchars exch def
    dup stringwidth pop
    fixwidth exch sub nchars div
    exch 0 exch ashow
} def
/bwproc {
	rgbproc
	dup length 3 idiv string 0 3 0
	5 -1 roll {
	add 2 1 roll 1 sub dup 0 eq
	{ pop 3 idiv 3 -1 roll dup 4 -1 roll dup
	  3 1 roll 5 -1 roll put 1 add 3 0 }
	{ 2 1 roll } ifelse
	} forall
	pop pop pop
} def
systemdict /colorimage known not {
	/colorimage {
		pop
		pop
		/rgbproc exch def
		{ bwproc } image
	} def
} if
1 1 scale
0 setlinewidth
/drawtri {
/y3 exch def
/x3 exch def
/y2 exch def
/x2 exch def
/y1 exch def
/x1 exch def
0 setgray
newpath
x1 y1 moveto
x2 y2 lineto
x3 y3 lineto
closepath
stroke
} bind def
/filltri {
/y3 exch def
/x3 exch def
/y2 exch def
/x2 exch def
/y1 exch def
/x1 exch def
newpath
x1 y1 moveto
x2 y2 lineto
x3 y3 lineto
closepath
fill
} bind def
/cliptri {
/y3 exch def
/x3 exch def
/y2 exch def
/x2 exch def
/y1 exch def
/x1 exch def
0 setgray
newpath
x1 y1 moveto
x2 y2 lineto
x3 y3 lineto
closepath
clip
} bind def
/imgscanrgb {
gsave
translate
/scandy exch def
/scandx exch def
/istr scandx 3 mul string def
scandx scandy scale
scandx scandy 8
[scandx 0 0 scandy neg 0 scandy]
{currentfile istr readhexstring pop}
false 3
colorimage
grestore
} bind def
/imgscanbw {
gsave
translate
/scandy exch def
/scandx exch def
/istr scandx string def
scandx scandy scale
scandx scandy 8
[scandx 0 0 scandy neg 0 scandy]
{currentfile istr readhexstring pop}
image
grestore
} bind def
/showcaseisoencoding [
/.notdef /.notdef /.notdef /.notdef
/.notdef /.notdef /.notdef /.notdef
/.notdef /.notdef /.notdef /.notdef
/.notdef /.notdef /.notdef /.notdef
/.notdef /.notdef /.notdef /.notdef
/.notdef /.notdef /.notdef /.notdef
/.notdef /.notdef /.notdef /.notdef
/.notdef /.notdef /.notdef /.notdef
/space /exclam /quotedbl /numbersign
/dollar /percent /ampersand /quoteright
/parenleft /parenright /asterisk /plus
/comma /minus /period /slash
/zero /one /two /three /four /five /six /seven
/eight /nine /colon /semicolon
/less /equal /greater /question
/at /A /B /C /D /E /F /G
/H /I /J /K /L /M /N /O
/P /Q /R /S /T /U /V /W
/X /Y /Z /bracketleft
/backslash /bracketright /asciicircum /underscore
/quoteleft /a /b /c /d /e /f /g
/h /i /j /k /l /m /n /o
/p /q /r /s /t /u /v /w
/x /y /z /braceleft
/bar /braceright /asciitilde /guilsinglright
/fraction /florin /quotesingle /quotedblleft
/guilsinglleft /fi /fl /endash
/dagger /daggerdbl /bullet /quotesinglbase
/quotedblbase /quotedblright /ellipsis /trademark
/dotlessi /grave /acute /circumflex
/tilde /macron /breve /dotaccent
/dieresis /perthousand /ring /cedilla
/Ydieresis /hungarumlaut /ogonek /caron
/emdash /exclamdown /cent /sterling
/currency /yen /brokenbar /section
/dieresis /copyright /ordfeminine /guillemotleft
/logicalnot /hyphen /registered /macron
/degree /plusminus /twosuperior /threesuperior
/acute /mu /paragraph /periodcentered
/cedilla /onesuperior /ordmasculine /guillemotright
/onequarter /onehalf /threequarters /questiondown
/Agrave /Aacute /Acircumflex /Atilde
/Adieresis /Aring /AE /Ccedilla
/Egrave /Eacute /Ecircumflex /Edieresis
/Igrave /Iacute /Icircumflex /Idieresis
/Eth /Ntilde /Ograve /Oacute
/Ocircumflex /Otilde /Odieresis /multiply
/Oslash /Ugrave /Uacute /Ucircumflex
/Udieresis /Yacute /Thorn /germandbls
/agrave /aacute /acircumflex /atilde
/adieresis /aring /ae /ccedilla
/egrave /eacute /ecircumflex /edieresis
/igrave /iacute /icircumflex /idieresis
/eth /ntilde /ograve /oacute
/ocircumflex /otilde /odieresis /divide
/oslash /ugrave /uacute /ucircumflex
/udieresis /yacute /thorn /ydieresis ] def
/showcasedingbatencoding [
/.notdef /.notdef /.notdef /.notdef
/.notdef /.notdef /.notdef /.notdef
/.notdef /.notdef /.notdef /.notdef
/.notdef /.notdef /.notdef /.notdef
/.notdef /.notdef /.notdef /.notdef
/.notdef /.notdef /.notdef /.notdef
/.notdef /.notdef /.notdef /.notdef
/.notdef /.notdef /.notdef /.notdef
/.notdef /a1 /a2 /a202 /a3 /a4 /a5 /a119 /a118 /a117
/a11 /a12 /a13 /a14 /a15 /a16 /a105 /a17 /a18 /a19
/a20 /a21 /a22 /a23 /a24 /a25 /a26 /a27 /a28 /a6 /a7
/a8 /a9 /a10 /a29
/a30 /a31 /a32 /a33 /a34 /a35 /a36 /a37 /a38 /a39
/a40 /a41 /a42 /a43 /a44 /a45 /a46 /a47 /a48 /a49
/a50 /a51 /a52 /a53 /a54 /a55 /a56 /a57 /a58 /a59
/a60 /a61 /a62 /a63 /a64 /a65 /a66 /a67 /a68 /a69
/a70 /a71 /a72 /a73 /a74 /a203 /a75 /a204 /a76 /a77 /a78
/a79 /a81 /a82 /a83 /a84 /a97 /a98 /a99 /a100 /.notdef
/a205 /a85 /a206 /a86 /a87 /a88 /a89 /a90 /a91 /a92 /a93
/a94 /a95 /a96
/.notdef /.notdef /.notdef /.notdef /.notdef /.notdef
/.notdef /.notdef /.notdef /.notdef /.notdef /.notdef
/.notdef /.notdef /.notdef /.notdef /.notdef /.notdef
/.notdef /a101 /a102 /a103 /a104 /a106 /a107 /a108
/a112 /a111 /a110 /a109
/a120 /a121 /a122 /a123 /a124 /a125 /a126 /a127 /a128 /a129
/a130 /a131 /a132 /a133 /a134 /a135 /a136 /a137 /a138 /a139
/a140 /a141 /a142 /a143 /a144 /a145 /a146 /a147 /a148 /a149
/a150 /a151 /a152 /a153 /a154 /a155 /a156 /a157 /a158 /a159
/a160 /a161 /a163 /a164 /a196 /a165 /a192 /a166 /a167 /a168
/a169 /a170 /a171 /a172 /a173 /a162 /a174 /a175 /a176 /a177
/a178 /a179 /a193 /a180 /a199 /a181 /a200 /a182 /.notdef
/a201 /a183 /a184 /a197 /a185 /a194 /a198 /a186 /a195 /a187
/a188 /a189 /a190 /a191 /.notdef
] def
/newfont 10 dict def
newfont begin

 /FontType 3 def
 /FontMatrix [1 0 0 1 0 0] def
 /FontBBox [0 0 1 1] def
 /Encoding 256 array def
 0 1 255 {Encoding exch /.notdef put} for

 /CharProcs 1 dict def
 CharProcs begin
 /.notdef {} def

end

 /BuildChar {
  1 0
  0 0 1 1
  setcachedevice
  exch begin
  Encoding exch get
  CharProcs exch get
  end
  exec
 } def
end
/PatternFont newfont definefont pop

%%EndResource
%%EndProlog
%%BeginSetup
%%EndSetup
%%Page: label 1
gsave
/saveit save def
gsave
gsave
matrix currentmatrix
[255.333 0 0 -255.333 193.667 685.333] concat
B
setmatrix
0 0 0 setrgbcolor
1.000000 setlinewidth
gsave stroke grestore
grestore
gsave
0 0 0 setrgbcolor
1.000000 setlinewidth
newpath
193.667 685.333 M
449 430 L
stroke
grestore
gsave
0 0 0 setrgbcolor
1.000000 setlinewidth
newpath
449 685.333 M
194.333 430 L
stroke
grestore
gsave
gsave
matrix currentmatrix
[1 0 0 1 224.5 406] concat
newpath
0 0 M 0 14 L 44 14 L 44 0 L
closepath setmatrix
0 0 0 setrgbcolor
grestore
newpath
222.5 404 M 222.5 422 L 270.5 422 L 270.5 404 L
closepath clip newpath
0 0 0 setrgbcolor
matrix currentmatrix
[1 0 0 1 224.5 406] concat
/Courier-Bold-SHOWISO findfont 14 scalefont setfont
0 0 0 setrgbcolor
0 3.5 M (Nodes) 42 S
setmatrix
grestore
gsave
gsave
matrix currentmatrix
[1 0 0 1 194 411.164] concat
newpath
0 0 M 0 14 L 10.4 14 L 10.4 0 L
closepath setmatrix
0 0 0 setrgbcolor
grestore
newpath
192 409.164 M 192 427.164 L 206.4 427.164 L 206.4 409.164 L
closepath clip newpath
0 0 0 setrgbcolor
matrix currentmatrix
[1 0 0 1 194 411.164] concat
/Courier-Bold-SHOWISO findfont 14 scalefont setfont
0 0 0 setrgbcolor
0 3.5 M (1) 8.4 S
setmatrix
grestore
gsave
gsave
matrix currentmatrix
[1 0 0 1 444 410.497] concat
newpath
0 0 M 0 14 L 10.4 14 L 10.4 0 L
closepath setmatrix
0 0 0 setrgbcolor
grestore
newpath
442 408.497 M 442 426.497 L 456.4 426.497 L 456.4 408.497 L
closepath clip newpath
0 0 0 setrgbcolor
matrix currentmatrix
[1 0 0 1 444 410.497] concat
/Courier-Bold-SHOWISO findfont 14 scalefont setfont
0 0 0 setrgbcolor
0 3.5 M (2) 8.4 S
setmatrix
grestore
gsave
gsave
matrix currentmatrix
[1 0 0 0.999996 444 689.167] concat
newpath
0 0 M 0 14 L 10.4 14 L 10.4 0 L
closepath setmatrix
0 0 0 setrgbcolor
grestore
newpath
442 687.167 M 442 705.167 L 456.4 705.167 L 456.4 687.167 L
closepath clip newpath
0 0 0 setrgbcolor
matrix currentmatrix
[1 0 0 0.999996 444 689.167] concat
/Courier-Bold-SHOWISO findfont 14 scalefont setfont
0 0 0 setrgbcolor
0 3.5 M (3) 8.4 S
setmatrix
grestore
gsave
gsave
matrix currentmatrix
[1 0 0 1 194 689.167] concat
newpath
0 0 M 0 14 L 10.4 14 L 10.4 0 L
closepath setmatrix
0 0 0 setrgbcolor
grestore
newpath
192 687.167 M 192 705.167 L 206.4 705.167 L 206.4 687.167 L
closepath clip newpath
0 0 0 setrgbcolor
matrix currentmatrix
[1 0 0 1 194 689.167] concat
/Courier-Bold-SHOWISO findfont 14 scalefont setfont
0 0 0 setrgbcolor
0 3.5 M (4) 8.4 S
setmatrix
grestore
gsave
gsave
matrix currentmatrix
[1 0 0 1 224.5 388.365] concat
newpath
0 0 M 0 14 L 44.014 14 L 44.014 0 L
closepath setmatrix
0 0 0 setrgbcolor
grestore
newpath
222.5 386.365 M 222.5 404.835 L 270.514 404.835 L 270.514 386.365 L
closepath clip newpath
0 0 0 setrgbcolor
matrix currentmatrix
[1 0 0 1 224.5 388.365] concat
/Helvetica-Bold-SHOWISO findfont 14 scalefont setfont
0 0 0 setrgbcolor
0 2.47059 M (Edges) 42.014 S
setmatrix
grestore
gsave
gsave
matrix currentmatrix
[1 0 0 1 321.833 436.031] concat
newpath
0 0 M 0 14 L 9.784 14 L 9.784 0 L
closepath setmatrix
0 0 0 setrgbcolor
grestore
newpath
319.833 434.031 M 319.833 452.502 L 333.617 452.502 L 333.617 434.031 L
closepath clip newpath
0 0 0 setrgbcolor
matrix currentmatrix
[1 0 0 1 321.833 436.031] concat
/Helvetica-Bold-SHOWISO findfont 14 scalefont setfont
0 0 0 setrgbcolor
0 2.47059 M (1) 7.784 S
setmatrix
grestore
gsave
gsave
matrix currentmatrix
[1 0 0 1 434.5 555.531] concat
newpath
0 0 M 0 14 L 9.784 14 L 9.784 0 L
closepath setmatrix
0 0 0 setrgbcolor
grestore
newpath
432.5 553.531 M 432.5 572.002 L 446.284 572.002 L 446.284 553.531 L
closepath clip newpath
0 0 0 setrgbcolor
matrix currentmatrix
[1 0 0 1 434.5 555.531] concat
/Helvetica-Bold-SHOWISO findfont 14 scalefont setfont
0 0 0 setrgbcolor
0 2.47059 M (2) 7.784 S
setmatrix
grestore
gsave
gsave
matrix currentmatrix
[1 0 0 1 317.667 664.195] concat
newpath
0 0 M 0 14 L 9.784 14 L 9.784 0 L
closepath setmatrix
0 0 0 setrgbcolor
grestore
newpath
315.667 662.195 M 315.667 680.666 L 329.451 680.666 L 329.451 662.195 L
closepath clip newpath
0 0 0 setrgbcolor
matrix currentmatrix
[1 0 0 1 317.667 664.195] concat
/Helvetica-Bold-SHOWISO findfont 14 scalefont setfont
0 0 0 setrgbcolor
0 2.47059 M (3) 7.784 S
setmatrix
grestore
gsave
gsave
matrix currentmatrix
[1 0 0 1 202.667 549.531] concat
newpath
0 0 M 0 14 L 9.784 14 L 9.784 0 L
closepath setmatrix
0 0 0 setrgbcolor
grestore
newpath
200.667 547.531 M 200.667 566.002 L 214.451 566.002 L 214.451 547.531 L
closepath clip newpath
0 0 0 setrgbcolor
matrix currentmatrix
[1 0 0 1 202.667 549.531] concat
/Helvetica-Bold-SHOWISO findfont 14 scalefont setfont
0 0 0 setrgbcolor
0 2.47059 M (4) 7.784 S
setmatrix
grestore
gsave
gsave
matrix currentmatrix
[1 0 0 1 385.167 495.031] concat
newpath
0 0 M 0 14 L 9.784 14 L 9.784 0 L
closepath setmatrix
0 0 0 setrgbcolor
grestore
newpath
383.167 493.031 M 383.167 511.502 L 396.951 511.502 L 396.951 493.031 L
closepath clip newpath
0 0 0 setrgbcolor
matrix currentmatrix
[1 0 0 1 385.167 495.031] concat
/Helvetica-Bold-SHOWISO findfont 14 scalefont setfont
0 0 0 setrgbcolor
0 2.47059 M (5) 7.784 S
setmatrix
grestore
gsave
gsave
matrix currentmatrix
[1 0 0 1 369.167 616.031] concat
newpath
0 0 M 0 14 L 9.784 14 L 9.784 0 L
closepath setmatrix
0 0 0 setrgbcolor
grestore
newpath
367.167 614.031 M 367.167 632.502 L 380.951 632.502 L 380.951 614.031 L
closepath clip newpath
0 0 0 setrgbcolor
matrix currentmatrix
[1 0 0 1 369.167 616.031] concat
/Helvetica-Bold-SHOWISO findfont 14 scalefont setfont
0 0 0 setrgbcolor
0 2.47059 M (6) 7.784 S
setmatrix
grestore
gsave
gsave
matrix currentmatrix
[1 0 0 1 250.333 602.859] concat
newpath
0 0 M 0 14 L 9.784 14 L 9.784 0 L
closepath setmatrix
0 0 0 setrgbcolor
grestore
newpath
248.333 600.859 M 248.333 619.33 L 262.117 619.33 L 262.117 600.859 L
closepath clip newpath
0 0 0 setrgbcolor
matrix currentmatrix
[1 0 0 1 250.333 602.859] concat
/Helvetica-Bold-SHOWISO findfont 14 scalefont setfont
0 0 0 setrgbcolor
0 2.47059 M (7) 7.784 S
setmatrix
grestore
gsave
gsave
matrix currentmatrix
[1 0 0 1 256.333 477.195] concat
newpath
0 0 M 0 14 L 9.784 14 L 9.784 0 L
closepath setmatrix
0 0 0 setrgbcolor
grestore
newpath
254.333 475.195 M 254.333 493.666 L 268.117 493.666 L 268.117 475.195 L
closepath clip newpath
0 0 0 setrgbcolor
matrix currentmatrix
[1 0 0 1 256.333 477.195] concat
/Helvetica-Bold-SHOWISO findfont 14 scalefont setfont
0 0 0 setrgbcolor
0 2.47059 M (8) 7.784 S
setmatrix
grestore
gsave
gsave
matrix currentmatrix
[1 0 0 1 225.167 368.362] concat
newpath
0 0 M 0 14 L 60.352 14 L 60.352 0 L
closepath setmatrix
0 0 0 setrgbcolor
grestore
newpath
223.167 366.362 M 223.167 384.833 L 287.519 384.833 L 287.519 366.362 L
closepath clip newpath
0 0 0 setrgbcolor
matrix currentmatrix
[1 0 0 1 225.167 368.362] concat
/Helvetica-Oblique-SHOWISO findfont 14 scalefont setfont
0 0 0 setrgbcolor
0 2.47059 M (Elements) 58.352 S
setmatrix
grestore
gsave
gsave
matrix currentmatrix
[1 0 0 1 320 471.529] concat
newpath
0 0 M 0 14 L 9.784 14 L 9.784 0 L
closepath setmatrix
0 0 0 setrgbcolor
grestore
newpath
318 469.529 M 318 487.999 L 331.784 487.999 L 331.784 469.529 L
closepath clip newpath
0 0 0 setrgbcolor
matrix currentmatrix
[1 0 0 1 320 471.529] concat
/Helvetica-Oblique-SHOWISO findfont 14 scalefont setfont
0 0 0 setrgbcolor
0 2.47059 M (1) 7.784 S
setmatrix
grestore
gsave
gsave
matrix currentmatrix
[1 0 0 1 388 552.195] concat
newpath
0 0 M 0 14 L 9.784 14 L 9.784 0 L
closepath setmatrix
0 0 0 setrgbcolor
grestore
newpath
386 550.195 M 386 568.666 L 399.784 568.666 L 399.784 550.195 L
closepath clip newpath
0 0 0 setrgbcolor
matrix currentmatrix
[1 0 0 1 388 552.195] concat
/Helvetica-Oblique-SHOWISO findfont 14 scalefont setfont
0 0 0 setrgbcolor
0 2.47059 M (2) 7.784 S
setmatrix
grestore
gsave
gsave
matrix currentmatrix
[1 0 0 1 317.333 628.859] concat
newpath
0 0 M 0 14 L 9.784 14 L 9.784 0 L
closepath setmatrix
0 0 0 setrgbcolor
grestore
newpath
315.333 626.859 M 315.333 645.33 L 329.117 645.33 L 329.117 626.859 L
closepath clip newpath
0 0 0 setrgbcolor
matrix currentmatrix
[1 0 0 1 317.333 628.859] concat
/Helvetica-Oblique-SHOWISO findfont 14 scalefont setfont
0 0 0 setrgbcolor
0 2.47059 M (3) 7.784 S
setmatrix
grestore
gsave
gsave
matrix currentmatrix
[1 0 0 1 242 552.195] concat
newpath
0 0 M 0 14 L 9.784 14 L 9.784 0 L
closepath setmatrix
0 0 0 setrgbcolor
grestore
newpath
240 550.195 M 240 568.666 L 253.784 568.666 L 253.784 550.195 L
closepath clip newpath
0 0 0 setrgbcolor
matrix currentmatrix
[1 0 0 1 242 552.195] concat
/Helvetica-Oblique-SHOWISO findfont 14 scalefont setfont
0 0 0 setrgbcolor
0 2.47059 M (4) 7.784 S
setmatrix
grestore
gsave
0 0 0 setrgbcolor
1.000000 setlinewidth
newpath
229.5 366.833 M
224.625 367.958 L
222 371.333 L
221.5 374.833 L
221.5 374.833 L
221.5 374.833 L
221.5 374.833 L
222.625 379.708 L
226 382.333 L
229.5 382.833 L
229.5 382.833 L
230.237 382.833 L
231.977 382.833 L
234.571 382.833 L
237.875 382.833 L
241.741 382.833 L
246.023 382.833 L
250.575 382.833 L
255.25 382.833 L
259.901 382.833 L
264.383 382.833 L
268.548 382.833 L
272.25 382.833 L
275.343 382.833 L
277.68 382.833 L
279.114 382.833 L
279.5 382.833 L
279.5 382.833 L
284.375 381.708 L
287 378.333 L
287.5 374.833 L
287.5 374.833 L
287.5 374.833 L
287.5 374.833 L
286.375 369.958 L
283 367.333 L
279.5 366.833 L
279.5 366.833 L
278.785 366.833 L
277.105 366.833 L
274.6 366.833 L
271.406 366.833 L
267.662 366.833 L
263.504 366.833 L
259.071 366.833 L
254.5 366.833 L
249.929 366.833 L
245.496 366.833 L
241.338 366.833 L
237.594 366.833 L
234.4 366.833 L
231.895 366.833 L
230.215 366.833 L
229.5 366.833 L
closepath
stroke
grestore
gsave
0 0 0 setrgbcolor
1.000000 setlinewidth
newpath
323.667 470.667 M
318.894 471.838 L
316.576 475.353 L
316.333 477.667 L
316.333 477.667 L
316.333 479 L
316.333 479 L
317.561 483.556 L
321.242 485.769 L
323.667 486 L
323.667 486 L
323.667 486 L
323.667 486 L
328.439 484.828 L
330.758 481.314 L
331 479 L
331 479 L
331 477.667 L
331 477.667 L
329.773 473.111 L
326.091 470.898 L
323.667 470.667 L
323.667 470.667 L
323.791 470.667 L
closepath
stroke
grestore
gsave
0 0 0 setrgbcolor
1.000000 setlinewidth
newpath
391.667 550.667 M
386.894 551.838 L
384.576 555.353 L
384.333 557.667 L
384.333 557.667 L
384.333 559 L
384.333 559 L
385.561 563.556 L
389.242 565.769 L
391.667 566 L
391.667 566 L
391.667 566 L
391.667 566 L
396.439 564.829 L
398.758 561.314 L
399 559 L
399 559 L
399 557.667 L
399 557.667 L
397.773 553.111 L
394.091 550.898 L
391.667 550.667 L
391.667 550.667 L
391.791 550.667 L
closepath
stroke
grestore
gsave
0 0 0 setrgbcolor
1.000000 setlinewidth
newpath
321 628 M
316.227 629.172 L
313.909 632.686 L
313.667 635 L
313.667 635 L
313.667 636.333 L
313.667 636.333 L
314.894 640.889 L
318.576 643.102 L
321 643.333 L
321 643.333 L
321 643.333 L
321 643.333 L
325.773 642.162 L
328.091 638.647 L
328.333 636.333 L
328.333 636.333 L
328.333 635 L
328.333 635 L
327.106 630.444 L
323.424 628.231 L
321 628 L
321 628 L
321.124 628 L
closepath
stroke
grestore
gsave
0 0 0 setrgbcolor
1.000000 setlinewidth
newpath
246.333 550.667 M
241.561 551.838 L
239.242 555.353 L
239 557.667 L
239 557.667 L
239 559 L
239 559 L
240.227 563.556 L
243.909 565.769 L
246.333 566 L
246.333 566 L
246.333 566 L
246.333 566 L
251.106 564.829 L
253.424 561.314 L
253.667 559 L
253.667 559 L
253.667 557.667 L
253.667 557.667 L
252.439 553.111 L
248.758 550.898 L
246.333 550.667 L
246.333 550.667 L
246.457 550.667 L
closepath
stroke
grestore
gsave
gsave
matrix currentmatrix
[0.951923 0 0 1 317 536] concat
newpath
0 0 M 0 14 L 10.4 14 L 10.4 0 L
closepath setmatrix
0 0 0 setrgbcolor
grestore
newpath
315.096 534 M 315.096 552 L 328.804 552 L 328.804 534 L
closepath clip newpath
0 0 0 setrgbcolor
matrix currentmatrix
[0.951923 0 0 1 317 536] concat
/Courier-Bold-SHOWISO findfont 14 scalefont setfont
0 0 0 setrgbcolor
0 3.5 M (5) 8.4 S
setmatrix
grestore
gsave
0 0 0 setrgbcolor
1.000000 setlinewidth
[2] 0 setdash
newpath
201 433.5 M
442.5 433.5 L
stroke
grestore
gsave
0 0 0 setrgbcolor
1.000000 setlinewidth
[2] 0 setdash
newpath
201.5 681.5 M
443 681.5 L
stroke
grestore
gsave
0 0 0 setrgbcolor
1.000000 setlinewidth
[2] 0 setdash
newpath
197.5 678 M
197.5 436.5 L
stroke
grestore
gsave
0 0 0 setrgbcolor
1.000000 setlinewidth
[2] 0 setdash
newpath
446 679 M
446 437.5 L
stroke
grestore
gsave
0 0 0 setrgbcolor
1.000000 setlinewidth
[2] 0 setdash
newpath
312 413 M
346 413 L
stroke
grestore
gsave
gsave
matrix currentmatrix
[1 0 0 1 352 406.5] concat
newpath
0 0 M 0 14 L 83.704 14 L 83.704 0 L
closepath setmatrix
0 0 0 setrgbcolor
grestore
newpath
350 404.5 M 350 422.971 L 437.704 422.971 L 437.704 404.5 L
closepath clip newpath
0 0 0 setrgbcolor
matrix currentmatrix
[1 0 0 1 352 406.5] concat
/Helvetica-SHOWISO findfont 14 scalefont setfont
0 0 0 setrgbcolor
0 2.47059 M (marked edge) 81.704 S
setmatrix
grestore
grestore
showpage
saveit restore
grestore
%%EOF
