#-------------------------------------------------------------------
# this file contains definitions for a simple initial triangulation
# i.e. the unit square moved by the vector (-0.5,-0.5).
#
# j. behrens, 12/97
#-------------------------------------------------------------------
# first give the global defining parameters
!--- dimension of the grid coordinates
GRID_DIMENSION
2
!--- number of vertices in each element (3: triangular, 4: quadrilateral)
ELEMENT_VERTICES
3
!--- total number of nodes
NUMBER_OF_NODES
7
!--- total number of edges
NUMBER_OF_EDGES
14
!--- total number of elements
NUMBER_OF_ELEMENTS
7
# now define the boundary condition flags
DEF_INNERITEM
0
DEF_DIRICHLETBOUNDARY
-1
DEF_NEUMANNBOUNDARY
-2
# now define the grid items like nodes, edges, elements
!--- define the nodes
NODE_INDEXNUMBER
1
NODE_COORDINATES
12.5
-6.5
NODE_INDEXNUMBER
2
NODE_COORDINATES
12.5
7.5
NODE_INDEXNUMBER
3
NODE_COORDINATES
-10.0
7.5
NODE_INDEXNUMBER
4
NODE_COORDINATES
-8.0
-4.25
NODE_INDEXNUMBER
5
NODE_COORDINATES
1.5
-1.0
NODE_INDEXNUMBER
6
NODE_COORDINATES
4.0
4.0
NODE_INDEXNUMBER
7
NODE_COORDINATES
7.5
-1.0
!--- define the edges
EDGE_INDEXNUMBER
1
EDGE_NODEINDICES
1
2
EDGE_ELEMENTINDICES
1
0
EDGE_BOUNDARYCONDITION
-1
EDGE_INDEXNUMBER
2
EDGE_NODEINDICES
2
3
EDGE_ELEMENTINDICES
3
0
EDGE_BOUNDARYCONDITION
-1
EDGE_INDEXNUMBER
3
EDGE_NODEINDICES
3
4
EDGE_ELEMENTINDICES
5
0
EDGE_BOUNDARYCONDITION
-1
EDGE_INDEXNUMBER
4
EDGE_NODEINDICES
4
1
EDGE_ELEMENTINDICES
6
0
EDGE_BOUNDARYCONDITION
-1
EDGE_INDEXNUMBER
5
EDGE_NODEINDICES
5
6
EDGE_ELEMENTINDICES
4
0
EDGE_BOUNDARYCONDITION
-1
EDGE_INDEXNUMBER
6
EDGE_NODEINDICES
6
7
EDGE_ELEMENTINDICES
2
0
EDGE_BOUNDARYCONDITION
-1
EDGE_INDEXNUMBER
7
EDGE_NODEINDICES
7
5
EDGE_ELEMENTINDICES
7
0
EDGE_BOUNDARYCONDITION
-1
EDGE_INDEXNUMBER
8
EDGE_NODEINDICES
1
5
EDGE_ELEMENTINDICES
6
7
EDGE_BOUNDARYCONDITION
0
EDGE_INDEXNUMBER
9
EDGE_NODEINDICES
1
7
EDGE_ELEMENTINDICES
7
1
EDGE_BOUNDARYCONDITION
0
EDGE_INDEXNUMBER
10
EDGE_NODEINDICES
7
2
EDGE_ELEMENTINDICES
2
1
EDGE_BOUNDARYCONDITION
0
EDGE_INDEXNUMBER
11
EDGE_NODEINDICES
2
6
EDGE_ELEMENTINDICES
2
3
EDGE_BOUNDARYCONDITION
0
EDGE_INDEXNUMBER
12
EDGE_NODEINDICES
3
6
EDGE_ELEMENTINDICES
3
4
EDGE_BOUNDARYCONDITION
0
EDGE_INDEXNUMBER
13
EDGE_NODEINDICES
3
5
EDGE_ELEMENTINDICES
4
5
EDGE_BOUNDARYCONDITION
0
EDGE_INDEXNUMBER
14
EDGE_NODEINDICES
4
5
EDGE_ELEMENTINDICES
5
6
EDGE_BOUNDARYCONDITION
0
!--- define the elements
ELEMENT_INDEXNUMBER
1
ELEMENT_NODEINDICES
1
2
7
ELEMENT_EDGEINDICES
10
9
1
ELEMENT_MARKEDEDGE
3
ELEMENT_INDEXNUMBER
2
ELEMENT_NODEINDICES
2
6
7
ELEMENT_EDGEINDICES
6
10
11
ELEMENT_MARKEDEDGE
1
ELEMENT_INDEXNUMBER
3
ELEMENT_NODEINDICES
2
3
6
ELEMENT_EDGEINDICES
12
11
2
ELEMENT_MARKEDEDGE
3
ELEMENT_INDEXNUMBER
4
ELEMENT_NODEINDICES
3
5
6
ELEMENT_EDGEINDICES
5
12
13
ELEMENT_MARKEDEDGE
1
ELEMENT_INDEXNUMBER
5
ELEMENT_NODEINDICES
3
4
5
ELEMENT_EDGEINDICES
14
13
3
ELEMENT_MARKEDEDGE
3
ELEMENT_INDEXNUMBER
6
ELEMENT_NODEINDICES
4
1
5
ELEMENT_EDGEINDICES
8
14
4
ELEMENT_MARKEDEDGE
3
ELEMENT_INDEXNUMBER
7
ELEMENT_NODEINDICES
1
7
5
ELEMENT_EDGEINDICES
7
8
9
ELEMENT_MARKEDEDGE
1
#-------------------------------------------------------------------
# end of file
#-------------------------------------------------------------------
